{
    "data": [
        {
            "time": 0.0,
            "comment": "Debut recording"
        },
        {
            "time": 202.1688088,
            "comment": "Debut neutre"
        },
        {
            "time": 202.778821,
            "duration": 14.805,
            "certainty": 1,
            "intensity": 0.6,
            "emotion": "neutrality"
        },
        {
            "time": 217.5841171,
            "comment": "Fin neutre"
        },
        {
            "time": 724.1270647,
            "comment": "Debut induction 1"
        },
        {
            "time": 726.2204253,
            "duration": 6.199,
            "certainty": 0.2,
            "intensity": 0.2,
            "emotion": "disgust"
        },
        {
            "time": 726.8326127,
            "duration": 2.031,
            "speak": "yes"
        },
        {
            "time": 729.5330767,
            "duration": 2.886,
            "speak": "yes"
        },
        {
            "time": 733.4303698,
            "comment": "Fin induction 1"
        },
        {
            "time": 790.8007473,
            "comment": "Debut induction 1 round 2"
        },
        {
            "time": 791.3554191,
            "duration": 6.693,
            "certainty": 0.2,
            "intensity": 0.2,
            "emotion": "disgust"
        },
        {
            "time": 793.155902,
            "duration": 3.65,
            "speak": "yes"
        },
        {
            "time": 798.8636116,
            "comment": "Fin induction 1 round 2"
        },
        {
            "time": 864.3378768,
            "comment": "Debut induction 2"
        },
        {
            "time": 864.3551399,
            "duration": 13.259,
            "certainty": 0.8,
            "intensity": 0.6,
            "emotion": "neutrality"
        },
        {
            "time": 866.7672898,
            "duration": 4.588,
            "speak": "yes"
        },
        {
            "time": 877.6726132,
            "comment": "Fin induction 2"
        },
        {
            "time": 1163.208188,
            "comment": "Debut induction 3"
        },
        {
            "time": 1164.154569,
            "duration": 27.246,
            "certainty": 0.8,
            "intensity": 0.6,
            "emotion": "neutrality"
        },
        {
            "time": 1174.162646,
            "duration": 3.382,
            "occlusion": "frontal"
        },
        {
            "time": 1186.347205,
            "duration": 5.054,
            "occlusion": "frontal"
        },
        {
            "time": 1189.844829,
            "comment": "Commentaires"
        },
        {
            "time": 1190.580935,
            "duration": 3.85,
            "speak": "yes"
        },
        {
            "time": 1191.400761,
            "duration": 1.202,
            "certainty": 0.8,
            "intensity": 0.4,
            "emotion": "anger"
        },
        {
            "time": 1192.603053,
            "duration": 213.7,
            "certainty": 0.8,
            "intensity": 0.6,
            "emotion": "neutrality",
            "occlusion": "frontal"
        },
        {
            "time": 1203.868846,
            "duration": 2.03,
            "speak": "yes"
        },
        {
            "time": 1253.089529,
            "duration": 4.255,
            "speak": "yes"
        },
        {
            "time": 1263.806936,
            "duration": 6.49,
            "speak": "yes"
        },
        {
            "time": 1272.554238,
            "duration": 11.13,
            "speak": "yes"
        },
        {
            "time": 1287.821866,
            "duration": 10.965,
            "speak": "yes"
        },
        {
            "time": 1305.122601,
            "duration": 2.259,
            "speak": "yes"
        },
        {
            "time": 1308.082268,
            "duration": 1.431,
            "occlusion": "frontal"
        },
        {
            "time": 1312.12511,
            "duration": 1.66,
            "occlusion": "frontal"
        },
        {
            "time": 1322.759446,
            "duration": 7.784,
            "occlusion": "frontal"
        },
        {
            "time": 1325.146198,
            "duration": 0.235,
            "occlusion": "right"
        },
        {
            "time": 1407.282797,
            "comment": "Fin induction 3"
        },
        {
            "time": 1608.323197,
            "comment": "Debut induction 4"
        },
        {
            "time": 1608.323405,
            "duration": 40.04,
            "certainty": 0.8,
            "intensity": 0.2,
            "emotion": "happiness"
        },
        {
            "time": 1617.745957,
            "duration": 6.058,
            "occlusion": "frontal"
        },
        {
            "time": 1617.998551,
            "duration": 4.46,
            "speak": "yes"
        },
        {
            "time": 1648.36376,
            "duration": 34.071,
            "certainty": 0.8,
            "intensity": 0.4,
            "emotion": "happiness"
        },
        {
            "time": 1649.758443,
            "duration": 1.835,
            "speak": "yes"
        },
        {
            "time": 1652.913208,
            "duration": 3.214,
            "speak": "yes"
        },
        {
            "time": 1659.271564,
            "duration": 1.014,
            "speak": "yes"
        },
        {
            "time": 1669.036233,
            "duration": 12.786,
            "speak": "yes"
        },
        {
            "time": 1682.435123,
            "duration": 25.702,
            "certainty": 0.8,
            "intensity": 0.6,
            "emotion": "neutrality",
            "occlusion": "frontal"
        },
        {
            "time": 1683.294428,
            "duration": 0.637,
            "occlusion": "right"
        },
        {
            "time": 1688.561332,
            "duration": 0.906,
            "occlusion": "frontal"
        },
        {
            "time": 1694.540821,
            "duration": 13.391,
            "speak": "yes"
        },
        {
            "time": 1708.136712,
            "duration": 16.84,
            "certainty": 0.8,
            "intensity": 0.4,
            "emotion": "neutrality"
        },
        {
            "time": 1716.225297,
            "duration": 14.191,
            "speak": "yes"
        },
        {
            "time": 1725.012357,
            "duration": 19.562,
            "certainty": 0.8,
            "intensity": 0.6,
            "emotion": "neutrality"
        },
        {
            "time": 1732.820084,
            "duration": 4.584,
            "speak": "yes"
        },
        {
            "time": 1744.574655,
            "duration": 4.481,
            "certainty": 0.8,
            "intensity": 0.4,
            "emotion": "happiness"
        },
        {
            "time": 1749.055317,
            "duration": 22.874,
            "intensity": 0.8,
            "certainty": 0.8,
            "emotion": "happiness"
        },
        {
            "time": 1754.359317,
            "duration": 12.268,
            "speak": "yes"
        },
        {
            "time": 1768.497463,
            "duration": 7.041,
            "speak": "yes"
        },
        {
            "time": 1771.929006,
            "duration": 39.026,
            "certainty": 0.8,
            "intensity": 0.4,
            "emotion": "happiness"
        },
        {
            "time": 1779.558381,
            "duration": 0.33,
            "speak": "yes"
        },
        {
            "time": 1779.887909,
            "duration": 1.363,
            "speak": "yes"
        },
        {
            "time": 1804.489378,
            "duration": 4.26,
            "speak": "yes"
        },
        {
            "time": 1810.955187,
            "duration": 3.851,
            "intensity": 0.8,
            "certainty": 0.8,
            "emotion": "happiness"
        },
        {
            "time": 1813.798307,
            "duration": 4.74,
            "occlusion": "frontal"
        },
        {
            "time": 1814.805988,
            "duration": 17.648,
            "certainty": 0.8,
            "intensity": 0.4,
            "emotion": "happiness"
        },
        {
            "time": 1824.569682,
            "duration": 13.948,
            "speak": "yes"
        },
        {
            "time": 1832.454103,
            "duration": 16.845,
            "certainty": 0.8,
            "intensity": 0.6,
            "emotion": "neutrality"
        },
        {
            "time": 1849.852247,
            "comment": "Fin induction 4"
        },
        {
            "time": 2189.88793,
            "comment": "Debut induction 5"
        },
        {
            "time": 2190.854152,
            "duration": 108.324,
            "certainty": 0.8,
            "intensity": 0.4,
            "emotion": "anger"
        },
        {
            "time": 2193.203921,
            "duration": 24.878,
            "occlusion": "frontal"
        },
        {
            "time": 2200.332372,
            "duration": 2.807,
            "occlusion": "right"
        },
        {
            "time": 2220.372093,
            "duration": 17.212,
            "occlusion": "frontal"
        },
        {
            "time": 2224.449543,
            "duration": 7.085,
            "speak": "yes"
        },
        {
            "time": 2272.167215,
            "duration": 0.98,
            "occlusion": "frontal"
        },
        {
            "time": 2274.664339,
            "duration": 1.891,
            "speak": "yes"
        },
        {
            "time": 2299.178351,
            "duration": 4.46,
            "certainty": 0.6,
            "intensity": 0.6,
            "emotion": "neutrality",
            "occlusion": "frontal"
        },
        {
            "time": 2303.63872,
            "duration": 37.553,
            "intensity": 0.4,
            "certainty": 0.4,
            "emotion": "anger"
        },
        {
            "time": 2309.336467,
            "duration": 4.475,
            "speak": "yes"
        },
        {
            "time": 2315.624822,
            "duration": 5.83,
            "speak": "yes"
        },
        {
            "time": 2316.851735,
            "duration": 3.868,
            "occlusion": "frontal"
        },
        {
            "time": 2336.179391,
            "duration": 1.82,
            "speak": "yes"
        },
        {
            "time": 2341.191461,
            "duration": 55.893,
            "intensity": 0.6,
            "certainty": 0.4,
            "emotion": "neutrality",
            "occlusion": "frontal"
        },
        {
            "time": 2346.992137,
            "duration": 0.503,
            "occlusion": "right"
        },
        {
            "time": 2350.236323,
            "duration": 1.007,
            "occlusion": "right"
        },
        {
            "time": 2353.146287,
            "duration": 0.772,
            "occlusion": "right"
        },
        {
            "time": 2374.465035,
            "duration": 5.475,
            "speak": "yes"
        },
        {
            "time": 2386.043812,
            "duration": 3.64,
            "speak": "yes"
        },
        {
            "time": 2393.952045,
            "duration": 5.885,
            "speak": "yes"
        },
        {
            "time": 2397.084594,
            "duration": 5.615,
            "certainty": 0.6,
            "intensity": 0.6,
            "emotion": "neutrality",
            "occlusion": "frontal"
        },
        {
            "time": 2397.930005,
            "duration": 0.403,
            "occlusion": "right"
        },
        {
            "time": 2415.684012,
            "comment": "Fin induction 5"
        },
        {
            "time": 2503.766948,
            "comment": "Debut induction 6"
        },
        {
            "time": 2503.766949,
            "duration": 4.09,
            "certainty": 0.8,
            "intensity": 0.6,
            "emotion": "neutrality"
        },
        {
            "time": 2506.54557,
            "duration": 5.47,
            "speak": "yes"
        },
        {
            "time": 2507.645726,
            "duration": 2.2,
            "occlusion": "right"
        },
        {
            "time": 2507.856965,
            "duration": 6.212,
            "intensity": 0.8,
            "certainty": 0.8,
            "emotion": "happiness"
        },
        {
            "time": 2513.809149,
            "duration": 0.201,
            "occlusion": "right"
        },
        {
            "time": 2514.068757,
            "duration": 5.344,
            "certainty": 0.8,
            "intensity": 0.4,
            "emotion": "happiness"
        },
        {
            "time": 2517.35535,
            "duration": 2.035,
            "speak": "yes"
        }
    ]
}