{
    "data": [
        {
            "time": 0.0,
            "comment": "Debut recording"
        },
        {
            "time": 149.5731684,
            "comment": "Debut neutre"
        },
        {
            "time": 151.1983309,
            "duration": 21.902,
            "certainty": 1,
            "intensity": 0.6,
            "emotion": "neutrality"
        },
        {
            "time": 173.1005209,
            "duration": 372.829,
            "certainty": 0,
            "intensity": 0,
            "comment": "Fin neutre"
        },
        {
            "time": 530.9711521,
            "comment": "Debut emotion 1"
        },
        {
            "time": 545.9297532,
            "duration": 12.683,
            "certainty": 0.4,
            "intensity": 0.2,
            "emotion": "anger"
        },
        {
            "time": 547.6827626,
            "duration": 3.158,
            "occlusion": "frontal"
        },
        {
            "time": 551.7308543,
            "duration": 0.437,
            "occlusion": "frontal"
        },
        {
            "time": 552.2740288,
            "duration": 0.573,
            "occlusion": "frontal"
        },
        {
            "time": 555.3083241,
            "duration": 8.761,
            "occlusion": "frontal"
        },
        {
            "time": 558.6123202,
            "duration": 5.457,
            "intensity": 0.4,
            "certainty": 0.4,
            "emotion": "anger"
        },
        {
            "time": 564.0696049,
            "duration": 1.669,
            "certainty": 0.4,
            "intensity": 0.2,
            "emotion": "anger"
        },
        {
            "time": 565.8239887,
            "comment": "Fin emotion 1"
        },
        {
            "time": 792.9141336,
            "comment": "Debut emotion 2"
        },
        {
            "time": 793.0013999,
            "duration": 12.926,
            "speak": "yes"
        },
        {
            "time": 793.0013999,
            "duration": 5.395,
            "certainty": 0.8,
            "intensity": 0.6,
            "emotion": "neutrality"
        },
        {
            "time": 798.3965972,
            "duration": 1.922,
            "certainty": 0.8,
            "intensity": 0.4,
            "emotion": "happiness",
            "occlusion": "frontal"
        },
        {
            "time": 800.3189462,
            "duration": 4.439,
            "certainty": 0.8,
            "intensity": 0.2,
            "emotion": "happiness"
        },
        {
            "time": 804.7583979,
            "duration": 1.169,
            "certainty": 0.6,
            "intensity": 0.6,
            "emotion": "neutrality"
        },
        {
            "time": 806.0218693,
            "comment": "Fin emotion 2"
        },
        {
            "time": 1101.749198,
            "comment": "Debut induction 1"
        },
        {
            "time": 1103.110216,
            "duration": 2.167,
            "certainty": 0.8,
            "intensity": 0.4,
            "emotion": "disgust"
        },
        {
            "time": 1103.450867,
            "duration": 1.839,
            "speak": "yes"
        },
        {
            "time": 1105.277675,
            "duration": 10.387,
            "certainty": 0.8,
            "intensity": 0.4,
            "emotion": "happiness"
        },
        {
            "time": 1106.131803,
            "duration": 1.452,
            "speak": "yes"
        },
        {
            "time": 1110.319155,
            "duration": 1.989,
            "speak": "yes"
        },
        {
            "time": 1114.870626,
            "duration": 13.661,
            "speak": "yes"
        },
        {
            "time": 1115.664288,
            "duration": 5.244,
            "certainty": 0.8,
            "intensity": 0.2,
            "emotion": "happiness"
        },
        {
            "time": 1120.90853,
            "duration": 7.624,
            "certainty": 0.8,
            "intensity": 0.4,
            "emotion": "happiness"
        },
        {
            "time": 1128.555235,
            "comment": "Fin induction 1"
        },
        {
            "time": 1321.876131,
            "comment": "Debut induction 2"
        },
        {
            "time": 1321.878455,
            "duration": 4.464,
            "certainty": 0.6,
            "intensity": 0.6,
            "emotion": "neutrality"
        },
        {
            "time": 1325.012813,
            "duration": 1.82,
            "speak": "yes"
        },
        {
            "time": 1326.342304,
            "duration": 7.964,
            "certainty": 0.6,
            "intensity": 0.2,
            "emotion": "happiness"
        },
        {
            "time": 1327.780108,
            "duration": 9.107,
            "speak": "yes"
        },
        {
            "time": 1334.306667,
            "duration": 6.575,
            "certainty": 0.6,
            "intensity": 0.6,
            "emotion": "neutrality"
        },
        {
            "time": 1337.356021,
            "duration": 3.526,
            "occlusion": "frontal"
        },
        {
            "time": 1337.465638,
            "duration": 10.705,
            "speak": "yes"
        },
        {
            "time": 1340.881821,
            "duration": 7.289,
            "certainty": 0.6,
            "intensity": 0.4,
            "emotion": "happiness"
        },
        {
            "time": 1348.26674,
            "comment": "Fin induction 2"
        },
        {
            "time": 1517.159919,
            "comment": "Debut induction 3"
        },
        {
            "time": 1517.248164,
            "duration": 46.411,
            "certainty": 0.6,
            "intensity": 0.6,
            "emotion": "neutrality"
        },
        {
            "time": 1528.342374,
            "duration": 17.536,
            "speak": "yes"
        },
        {
            "time": 1543.322969,
            "duration": 1.279,
            "occlusion": "frontal"
        },
        {
            "time": 1554.08663,
            "duration": 3.698,
            "speak": "yes"
        },
        {
            "time": 1556.462342,
            "duration": 0.402,
            "occlusion": "frontal"
        },
        {
            "time": 1563.659254,
            "duration": 6.289,
            "certainty": 0.6,
            "intensity": 0.2,
            "emotion": "happiness"
        },
        {
            "time": 1569.947883,
            "duration": 30.577,
            "certainty": 0.6,
            "intensity": 0.6,
            "emotion": "neutrality"
        },
        {
            "time": 1572.292513,
            "duration": 1.663,
            "speak": "yes"
        },
        {
            "time": 1585.377992,
            "duration": 7.008,
            "speak": "yes"
        },
        {
            "time": 1598.89017,
            "duration": 7.295,
            "speak": "yes"
        },
        {
            "time": 1600.524684,
            "duration": 7.915,
            "certainty": 0.6,
            "intensity": 0.2,
            "emotion": "happiness"
        },
        {
            "time": 1608.43992,
            "duration": 45.643,
            "certainty": 0.6,
            "intensity": 0.6,
            "emotion": "neutrality"
        },
        {
            "time": 1615.531485,
            "duration": 2.435,
            "speak": "yes"
        },
        {
            "time": 1621.889067,
            "duration": 11.193,
            "speak": "yes"
        },
        {
            "time": 1640.52165,
            "duration": 2.295,
            "speak": "yes"
        },
        {
            "time": 1650.994199,
            "duration": 3.917,
            "speak": "yes"
        },
        {
            "time": 1654.083389,
            "duration": 1.816,
            "certainty": 0.6,
            "intensity": 0.2,
            "emotion": "happiness"
        },
        {
            "time": 1655.898999,
            "duration": 54.223,
            "certainty": 0.6,
            "intensity": 0.6,
            "emotion": "neutrality"
        },
        {
            "time": 1702.056011,
            "duration": 3.091,
            "speak": "yes"
        },
        {
            "time": 1708.314284,
            "duration": 3.24,
            "speak": "yes"
        },
        {
            "time": 1708.640555,
            "duration": 0.886,
            "occlusion": "frontal"
        },
        {
            "time": 1710.121783,
            "duration": 2.364,
            "certainty": 0.8,
            "intensity": 0.4,
            "emotion": "happiness"
        },
        {
            "time": 1712.485775,
            "duration": 32.018,
            "certainty": 0.6,
            "intensity": 0.6,
            "emotion": "neutrality"
        },
        {
            "time": 1744.503705,
            "duration": 0.937,
            "certainty": 0.4,
            "intensity": 0.2,
            "emotion": "happiness"
        },
        {
            "time": 1745.440256,
            "duration": 1.019,
            "certainty": 0.4,
            "intensity": 0.2,
            "occlusion": "frontal",
            "emotion": "surprise"
        },
        {
            "time": 1746.459314,
            "duration": 3.104,
            "certainty": 0.4,
            "intensity": 0.2,
            "emotion": "happiness"
        },
        {
            "time": 1749.563701,
            "duration": 50.279,
            "certainty": 0.6,
            "intensity": 0.6,
            "emotion": "neutrality"
        },
        {
            "time": 1753.335379,
            "duration": 5.799,
            "occlusion": "frontal"
        },
        {
            "time": 1754.303577,
            "duration": 2.635,
            "speak": "yes"
        },
        {
            "time": 1762.488369,
            "duration": 5.916,
            "occlusion": "frontal"
        },
        {
            "time": 1770.437304,
            "duration": 9.093,
            "occlusion": "frontal"
        },
        {
            "time": 1799.861186,
            "comment": "Fin induction 3"
        },
        {
            "time": 2173.794852,
            "comment": "Debut induction 4"
        },
        {
            "time": 2173.804057,
            "duration": 1.48,
            "speak": "yes"
        },
        {
            "time": 2173.804057,
            "duration": 3.683,
            "certainty": 0.6,
            "intensity": 0.6,
            "emotion": "neutrality"
        },
        {
            "time": 2177.487532,
            "duration": 3.458,
            "certainty": 0.8,
            "intensity": 0.4,
            "emotion": "happiness"
        },
        {
            "time": 2177.830907,
            "duration": 0.498,
            "speak": "yes"
        },
        {
            "time": 2179.829418,
            "duration": 1.116,
            "speak": "yes"
        },
        {
            "time": 2180.945532,
            "duration": 0.887,
            "speak": "yes"
        },
        {
            "time": 2180.945532,
            "duration": 33.774,
            "certainty": 0.6,
            "intensity": 0.6,
            "emotion": "neutrality"
        },
        {
            "time": 2191.329639,
            "duration": 32.917,
            "speak": "yes"
        },
        {
            "time": 2201.475506,
            "duration": 2.434,
            "occlusion": "right"
        },
        {
            "time": 2214.719587,
            "duration": 5.797,
            "certainty": 0.6,
            "intensity": 0.2,
            "emotion": "happiness"
        },
        {
            "time": 2216.219761,
            "duration": 1.89,
            "occlusion": "right"
        },
        {
            "time": 2220.516633,
            "duration": 47.948,
            "certainty": 0.6,
            "intensity": 0.6,
            "emotion": "neutrality"
        },
        {
            "time": 2241.188474,
            "duration": 2.02,
            "speak": "yes"
        },
        {
            "time": 2247.072839,
            "duration": 8.583,
            "speak": "yes"
        },
        {
            "time": 2268.464456,
            "duration": 8.729,
            "certainty": 0.6,
            "intensity": 0.2,
            "emotion": "happiness"
        },
        {
            "time": 2273.343311,
            "duration": 16.199,
            "speak": "yes"
        },
        {
            "time": 2277.193456,
            "duration": 27.003,
            "certainty": 0.6,
            "intensity": 0.6,
            "emotion": "neutrality"
        },
        {
            "time": 2295.217391,
            "duration": 17.547,
            "speak": "yes"
        },
        {
            "time": 2304.196934,
            "duration": 7.994,
            "certainty": 0.6,
            "intensity": 0.2,
            "emotion": "happiness"
        },
        {
            "time": 2305.248686,
            "duration": 1.497,
            "occlusion": "right"
        },
        {
            "time": 2312.190946,
            "duration": 3.453,
            "certainty": 0.6,
            "intensity": 0.4,
            "emotion": "happiness"
        },
        {
            "time": 2314.912135,
            "duration": 2.953,
            "speak": "yes"
        },
        {
            "time": 2315.644144,
            "duration": 2.783,
            "certainty": 0.6,
            "intensity": 0.2,
            "emotion": "happiness"
        },
        {
            "time": 2318.427623,
            "duration": 62.118,
            "certainty": 0.6,
            "intensity": 0.6,
            "emotion": "neutrality"
        },
        {
            "time": 2322.337067,
            "duration": 6.55,
            "occlusion": "frontal"
        },
        {
            "time": 2324.188804,
            "duration": 6.495,
            "speak": "yes"
        },
        {
            "time": 2371.504782,
            "duration": 0.98,
            "occlusion": "frontal"
        },
        {
            "time": 2371.623806,
            "duration": 0.861,
            "occlusion": "right"
        },
        {
            "time": 2375.712677,
            "comment": "Commentaire"
        },
        {
            "time": 2378.862515,
            "duration": 1.415,
            "speak": "yes"
        },
        {
            "time": 2379.439939,
            "duration": 1.106,
            "occlusion": "frontal"
        },
        {
            "time": 2380.546096,
            "duration": 3.818,
            "certainty": 0.6,
            "intensity": 0.4,
            "emotion": "surprise"
        },
        {
            "time": 2381.173809,
            "duration": 2.109,
            "speak": "yes"
        },
        {
            "time": 2382.054662,
            "duration": 2.31,
            "occlusion": "frontal"
        },
        {
            "time": 2384.364582,
            "duration": 8.313,
            "certainty": 0.6,
            "intensity": 0.6,
            "emotion": "neutrality"
        },
        {
            "time": 2388.641065,
            "duration": 1.166,
            "speak": "yes"
        },
        {
            "time": 2388.906741,
            "duration": 1.441,
            "occlusion": "right"
        },
        {
            "time": 2392.677755,
            "duration": 7.117,
            "intensity": 0.8,
            "certainty": 0.8,
            "emotion": "surprise"
        },
        {
            "time": 2393.122803,
            "duration": 9.198,
            "speak": "yes"
        },
        {
            "time": 2399.795046,
            "duration": 17.265,
            "intensity": 0.4,
            "certainty": 0.4,
            "emotion": "happiness"
        },
        {
            "time": 2403.256937,
            "duration": 5.151,
            "speak": "yes"
        },
        {
            "time": 2413.213279,
            "duration": 3.847,
            "speak": "yes"
        },
        {
            "time": 2417.059827,
            "duration": 1.868,
            "speak": "yes"
        },
        {
            "time": 2417.059827,
            "duration": 15.21,
            "intensity": 0.8,
            "certainty": 0.8,
            "emotion": "happiness"
        },
        {
            "time": 2421.986947,
            "duration": 2.025,
            "occlusion": "frontal"
        },
        {
            "time": 2425.125331,
            "duration": 2.435,
            "speak": "yes"
        },
        {
            "time": 2432.26937,
            "duration": 0.69,
            "intensity": 0.6,
            "certainty": 0.4,
            "emotion": "neutrality"
        },
        {
            "time": 2432.958955,
            "duration": 47.299,
            "intensity": 0.4,
            "certainty": 0.4,
            "emotion": "happiness"
        },
        {
            "time": 2438.104134,
            "duration": 17.474,
            "speak": "yes"
        },
        {
            "time": 2459.811836,
            "duration": 5.27,
            "speak": "yes"
        },
        {
            "time": 2468.879219,
            "duration": 4.665,
            "speak": "yes"
        },
        {
            "time": 2480.457954,
            "comment": "Fin induction 4"
        },
        {
            "time": 2591.871562,
            "comment": "Debut emotion 3"
        },
        {
            "time": 2593.011731,
            "duration": 3.454,
            "speak": "yes"
        },
        {
            "time": 2593.011731,
            "duration": 9.098,
            "certainty": 0.8,
            "intensity": 0.6,
            "emotion": "neutrality",
            "occlusion": "frontal"
        },
        {
            "time": 2597.439402,
            "duration": 4.67,
            "speak": "yes"
        },
        {
            "time": 2598.001408,
            "duration": 0.366,
            "occlusion": "frontal"
        },
        {
            "time": 2598.504459,
            "duration": 3.605,
            "occlusion": "frontal"
        },
        {
            "time": 2602.221769,
            "comment": "Fin emotion 3"
        },
        {
            "time": 2739.853329,
            "comment": "Debut induction 5"
        },
        {
            "time": 2747.651908,
            "duration": 4.965,
            "certainty": 0.6,
            "intensity": 0.2,
            "emotion": "happiness"
        },
        {
            "time": 2747.920521,
            "duration": 1.641,
            "occlusion": "frontal"
        },
        {
            "time": 2748.059224,
            "duration": 4.087,
            "speak": "yes"
        },
        {
            "time": 2752.616474,
            "duration": 11.366,
            "certainty": 0.6,
            "intensity": 0.6,
            "emotion": "neutrality"
        },
        {
            "time": 2755.851342,
            "duration": 2.84,
            "speak": "yes"
        },
        {
            "time": 2762.40546,
            "duration": 3.03,
            "speak": "yes"
        },
        {
            "time": 2763.982433,
            "duration": 5.071,
            "certainty": 0.6,
            "intensity": 0.2,
            "emotion": "happiness"
        },
        {
            "time": 2766.629225,
            "duration": 1.8,
            "speak": "yes"
        },
        {
            "time": 2769.05301,
            "duration": 3.852,
            "certainty": 0.6,
            "intensity": 0.4,
            "emotion": "happiness"
        },
        {
            "time": 2772.90501,
            "duration": 64.814,
            "certainty": 0.6,
            "intensity": 0.6,
            "emotion": "neutrality"
        },
        {
            "time": 2778.135342,
            "duration": 2.19,
            "speak": "yes"
        },
        {
            "time": 2785.280304,
            "duration": 4.261,
            "occlusion": "frontal"
        },
        {
            "time": 2800.640414,
            "duration": 3.508,
            "occlusion": "frontal"
        },
        {
            "time": 2808.85636,
            "duration": 4.059,
            "occlusion": "frontal"
        },
        {
            "time": 2815.107248,
            "duration": 1.62,
            "speak": "yes"
        },
        {
            "time": 2828.179145,
            "duration": 19.817,
            "occlusion": "frontal"
        },
        {
            "time": 2834.914729,
            "duration": 9.444,
            "speak": "yes"
        },
        {
            "time": 2837.719366,
            "duration": 10.276,
            "certainty": 0.6,
            "intensity": 0.2,
            "emotion": "happiness"
        },
        {
            "time": 2847.995746,
            "duration": 4.422,
            "certainty": 0.6,
            "intensity": 0.6,
            "emotion": "neutrality"
        },
        {
            "time": 2851.17628,
            "duration": 11.424,
            "speak": "yes"
        },
        {
            "time": 2852.417635,
            "duration": 5.987,
            "certainty": 0.6,
            "intensity": 0.2,
            "emotion": "happiness"
        },
        {
            "time": 2858.405076,
            "duration": 2.866,
            "certainty": 0.6,
            "intensity": 0.6,
            "emotion": "neutrality"
        },
        {
            "time": 2861.271107,
            "duration": 7.503,
            "intensity": 0.8,
            "certainty": 0.6,
            "emotion": "happiness"
        },
        {
            "time": 2867.197457,
            "duration": 8.27,
            "speak": "yes"
        },
        {
            "time": 2868.774107,
            "duration": 6.292,
            "certainty": 0.6,
            "intensity": 0.4,
            "emotion": "happiness"
        },
        {
            "time": 2875.065792,
            "duration": 2.451,
            "certainty": 0.6,
            "intensity": 0.6,
            "emotion": "neutrality"
        },
        {
            "time": 2877.558837,
            "comment": "Fin induction 5"
        },
        {
            "time": 3062.23984,
            "comment": "Debut induction 6"
        },
        {
            "time": 3062.263003,
            "duration": 0.949,
            "certainty": 0.8,
            "intensity": 0.6,
            "emotion": "neutrality"
        },
        {
            "time": 3063.212253,
            "duration": 1.874,
            "certainty": 0.6,
            "intensity": 0.6,
            "emotion": "neutrality",
            "occlusion": "right"
        },
        {
            "time": 3065.085986,
            "duration": 19.685,
            "intensity": 0.8,
            "certainty": 0.8,
            "emotion": "happiness"
        },
        {
            "time": 3065.48529,
            "duration": 1.42,
            "speak": "yes"
        },
        {
            "time": 3068.252584,
            "duration": 1.01,
            "speak": "yes"
        },
        {
            "time": 3073.517791,
            "duration": 1.039,
            "occlusion": "right"
        },
        {
            "time": 3075.00699,
            "duration": 4.344,
            "occlusion": "frontal"
        },
        {
            "time": 3080.356722,
            "duration": 3.005,
            "occlusion": "frontal"
        }
    ]
}