Classe	Observable	Code	Durée	Retard	Couleur			
Valence					Color [A=255	 R=101	 G=133	 B=207]
	Positive		0	0	Color [A=255	 R=156	 G=176	 B=132]
	Neutre		0	0	Color [A=255	 R=107	 G=177	 B=201]
	Négative		0	0	Color [A=255	 R=206	 G=185	 B=102]
Emotion					Color [A=255	 R=206	 G=146	 B=30]
	Joie		0	0	Color [A=255	 R=102	 G=168	 B=9]
	Tristesse		0	0	Color [A=255	 R=200	 G=76	 B=27]
	Colère		0	0	Color [A=255	 R=200	 G=173	 B=58]
	Peur		0	0	Color [A=255	 R=119	 G=199	 B=70]
	Surprise		0	0	Color [A=255	 R=152	 G=58	 B=23]
	Dégoût		0	0	Color [A=255	 R=0	 G=136	 B=0]
	Neutre		0	0	Color [A=255	 R=158	 G=161	 B=0]
Intensité					Color [A=255	 R=184	 G=61	 B=104]
	-2 Très peu		0	0	Color [A=255	 R=172	 G=102	 B=187]
	-1 Peu		0	0	Color [A=255	 R=222	 G=108	 B=54]
	0 Neutre		0	0	Color [A=255	 R=249	 G=182	 B=57]
	+1 Beaucoup		0	0	Color [A=255	 R=207	 G=109	 B=164]
	+2 Extrêmement		0	0	Color [A=255	 R=250	 G=141	 B=61]
Degré de certitude					Color [A=255	 R=101	 G=133	 B=207]
	-2 Pas du tout sûr		0	0	Color [A=255	 R=156	 G=176	 B=132]
	-1 Peu sûr		0	0	Color [A=255	 R=107	 G=177	 B=201]
	0 Moyennement sûr		0	0	Color [A=255	 R=206	 G=185	 B=102]
	+1 Plutôt sûr		0	0	Color [A=255	 R=126	 G=107	 B=201]
	+2 Totalement sûr		0	0	Color [A=255	 R=163	 G=121	 B=187]
Soleil					Color [A=255	 R=206	 G=146	 B=30]
	Oui		0	0	Color [A=255	 R=102	 G=168	 B=9]
	Non		0	0	Color [A=255	 R=200	 G=76	 B=27]
Fatigue					Color [A=255	 R=184	 G=61	 B=104]
	Oui		0	0	Color [A=255	 R=172	 G=102	 B=187]
	Non		0	0	Color [A=255	 R=222	 G=108	 B=54]
Parler					Color [A=255	 R=101	 G=133	 B=207]
	Oui		0	0	Color [A=255	 R=156	 G=176	 B=132]
	Non		0	0	Color [A=255	 R=107	 G=177	 B=201]
Occlusion frontale					Color [A=255	 R=206	 G=146	 B=30]
	Oui		0	0	Color [A=255	 R=102	 G=168	 B=9]
	Non		0	0	Color [A=255	 R=200	 G=76	 B=27]
Occlusion droite					Color [A=255	 R=184	 G=61	 B=104]
	Oui		0	0	Color [A=255	 R=172	 G=102	 B=187]
	Non		0	0	Color [A=255	 R=222	 G=108	 B=54]
								
Durée : Interne aux classes								
								
Date	Classe	Observable	Durée					
								
Start Time	06.01.2017 15:18							
								
0	Commentaire	Debut recording						
322.2323593	Commentaire	Debut neutre						
323.0423917	Degré de certitude	+2 Totalement sûr	0:00:13.381					
323.0423917	Intensité	0 Neutre	0:00:13.381					
323.0423917	Valence	Neutre	0:00:13.381					
323.0423917	Emotion	Neutre	0:00:13.381					
336.4229269	Valence	null	0:11:52.515					
336.4229269	Degré de certitude	null	0:11:52.515					
336.4229269	Emotion	null	0:11:52.515					
336.4229269	Intensité	null	0:11:52.515					
336.4229269	Commentaire	Fin neutre						
1048.851403	Commentaire	Debut induction 1						
1048.938417	Degré de certitude	+1 Plutôt sûr	0:00:04.403					
1048.938417	Intensité	0 Neutre	0:00:04.403					
1048.938417	Valence	Neutre	0:00:04.403					
1048.938417	Emotion	Neutre	0:00:04.403					
1053.217094	Parler	Oui	0:00:00.844					
1053.340954	Intensité	+1 Beaucoup	0:00:02.575					
1053.340954	Degré de certitude	+1 Plutôt sûr	0:00:02.575					
1053.340954	Emotion	Joie	0:00:02.575					
1053.340954	Valence	Positive	0:00:02.575					
1054.060983	Parler	null	0:00:01.825					
1055.886019	Parler	Oui	0:00:02.971					
1055.915899	Intensité	+1 Beaucoup	0:00:06.194					
1055.915899	Degré de certitude	-1 Peu sûr	0:00:06.194					
1055.915899	Emotion	Dégoût	0:00:06.194					
1055.915899	Valence	Négative	0:00:06.194					
1058.856565	Parler	null	0:00:02.771					
1061.627108	Parler	Oui	0:00:02.983					
1062.109441	Intensité	-1 Peu	0:00:02.366					
1062.109441	Degré de certitude	-1 Peu sûr	0:00:02.366					
1062.109441	Emotion	Joie	0:00:02.366					
1062.109441	Valence	Positive	0:00:02.366					
1064.475252	Intensité	+1 Beaucoup	0:00:03.079					
1064.475252	Degré de certitude	-1 Peu sûr	0:00:03.079					
1064.475252	Emotion	Dégoût	0:00:03.079					
1064.475252	Valence	Négative	0:00:03.079					
1064.609921	Parler	null	0:00:02.709					
1067.318505	Parler	Oui	0:00:02.058					
1067.554456	Intensité	-1 Peu	0:00:09.360					
1067.554456	Degré de certitude	-1 Peu sûr	0:00:09.360					
1067.554456	Emotion	Joie	0:00:09.360					
1067.554456	Valence	Positive	0:00:09.360					
1069.376302	Parler	null	0:00:01.984					
1071.3607	Parler	Oui	0:00:03.935					
1075.295459	Parler	null	0:02:08.077					
1076.914834	Emotion	null	0:02:06.457					
1076.914834	Degré de certitude	null	0:02:06.457					
1076.914834	Intensité	null	0:02:06.457					
1076.914834	Valence	null	0:02:06.457					
1077.180186	Commentaire	Fin induction 1						
1203.372037	Commentaire	 Debut induction 2						
1203.372038	Degré de certitude	+1 Plutôt sûr	0:00:00.703					
1203.372038	Intensité	0 Neutre	0:00:00.703					
1203.372038	Valence	Neutre	0:00:00.703					
1203.372038	Emotion	Neutre	0:00:00.703					
1203.372038	Parler	Oui	0:00:02.384					
1204.075295	Degré de certitude	+1 Plutôt sûr	0:00:16.133					
1204.075295	Intensité	-2 Très peu	0:00:16.133					
1204.075295	Valence	Négative	0:00:16.133					
1204.075295	Emotion	Surprise	0:00:16.133					
1205.756149	Parler	null	0:00:04.492					
1210.248341	Parler	Oui	0:00:04.506					
1214.754239	Parler	null	0:00:03.089					
1217.84334	Parler	Oui	0:00:02.381					
1220.20817	Intensité	null	0:04:36.842					
1220.20817	Degré de certitude	null	0:04:36.842					
1220.20817	Valence	null	0:04:36.842					
1220.20817	Emotion	null	0:04:36.842					
1220.223949	Parler	null	0:04:36.826					
1220.703846	Commentaire	Fin induction 2						
1497.038106	Commentaire	Debut induction 3						
1497.050126	Degré de certitude	0 Moyennement sûr	0:00:28.019					
1497.050126	Intensité	0 Neutre	0:00:28.019					
1497.050126	Valence	Neutre	0:00:28.019					
1497.050126	Emotion	Neutre	0:00:28.019					
1497.050126	Parler	Oui	0:00:26.777					
1520.666024	Occlusion frontale	Oui	0:00:01.286					
1521.952051	Occlusion frontale	null	0:00:30.541					
1523.82751	Parler	null	0:00:01.973					
1525.068731	Degré de certitude	0 Moyennement sûr	0:00:00.704					
1525.068731	Intensité	-2 Très peu	0:00:00.704					
1525.068731	Emotion	Joie	0:00:00.704					
1525.068731	Valence	Positive	0:00:00.704					
1525.77239	Degré de certitude	0 Moyennement sûr	0:00:00.526					
1525.77239	Intensité	0 Neutre	0:00:00.526					
1525.77239	Emotion	Neutre	0:00:00.526					
1525.77239	Valence	Neutre	0:00:00.526					
1525.800756	Parler	Oui	0:00:31.449					
1526.2979	Degré de certitude	0 Moyennement sûr	0:00:03.476					
1526.2979	Intensité	-1 Peu	0:00:03.476					
1526.2979	Emotion	Joie	0:00:03.476					
1526.2979	Valence	Positive	0:00:03.476					
1529.773491	Degré de certitude	0 Moyennement sûr	0:02:54.535					
1529.773491	Intensité	0 Neutre	0:02:54.535					
1529.773491	Emotion	Neutre	0:02:54.535					
1529.773491	Valence	Neutre	0:02:54.535					
1552.493442	Occlusion frontale	Oui	0:00:02.856					
1555.349407	Occlusion frontale	null	0:00:07.237					
1557.249333	Parler	null	0:00:04.291					
1561.539919	Parler	Oui	0:00:10.771					
1562.586589	Occlusion frontale	Oui	0:00:13.965					
1572.311109	Parler	null	0:00:02.463					
1574.774389	Parler	Oui	0:00:11.303					
1576.551567	Occlusion frontale	null	0:01:53.467					
1586.077205	Parler	null	0:00:07.952					
1594.029633	Parler	Oui	0:00:43.564					
1637.593287	Parler	null	0:00:15.063					
1652.656024	Parler	Oui	0:00:01.620					
1654.276057	Parler	null	0:00:03.467					
1657.743229	Parler	Oui	0:00:01.842					
1659.585201	Parler	null	0:00:44.994					
1664.149812	Commentaire	Commentaires						
1690.018173	Occlusion frontale	Oui	0:00:02.370					
1692.388083	Occlusion frontale	null	0:00:01.184					
1693.571661	Occlusion frontale	Oui	0:00:50.789					
1704.308452	Degré de certitude	0 Moyennement sûr	0:00:06.353					
1704.308452	Intensité	-1 Peu	0:00:06.353					
1704.308452	Emotion	Joie	0:00:06.353					
1704.308452	Valence	Positive	0:00:06.353					
1704.579051	Parler	Oui	0:00:06.895					
1708.971432	Occlusion droite	Oui	0:00:00.938					
1709.909644	Occlusion droite	null	0:00:03.473					
1710.661182	Degré de certitude	0 Moyennement sûr	0:01:17.491					
1710.661182	Intensité	0 Neutre	0:01:17.491					
1710.661182	Emotion	Neutre	0:01:17.491					
1710.661182	Valence	Neutre	0:01:17.491					
1711.474189	Parler	null	0:00:18.422					
1713.38231	Occlusion droite	Oui	0:00:06.597					
1719.979713	Occlusion droite	null	0:18:45.040					
1729.895711	Parler	Oui	0:00:04.465					
1734.360801	Parler	null	0:00:02.286					
1736.646821	Parler	Oui	0:00:04.352					
1740.998523	Parler	null	0:00:05.009					
1744.361151	Occlusion frontale	null	0:00:03.023					
1746.007257	Parler	Oui	0:00:03.865					
1747.383896	Occlusion frontale	Oui	0:00:01.256					
1748.640345	Occlusion frontale	null	0:00:00.874					
1749.514212	Occlusion frontale	Oui	0:00:01.921					
1749.872334	Parler	null	0:00:04.574					
1751.435605	Occlusion frontale	null	0:00:23.707					
1754.446143	Parler	Oui	0:00:06.792					
1761.237894	Parler	null	0:00:47.639					
1775.143062	Occlusion frontale	Oui	0:00:04.865					
1780.008161	Occlusion frontale	null	0:00:21.485					
1788.151858	Degré de certitude	0 Moyennement sûr	0:00:06.358					
1788.151858	Intensité	-2 Très peu	0:00:06.358					
1788.151858	Emotion	Joie	0:00:06.358					
1788.151858	Valence	Positive	0:00:06.358					
1794.509606	Degré de certitude	0 Moyennement sûr	0:00:18.165					
1794.509606	Intensité	0 Neutre	0:00:18.165					
1794.509606	Emotion	Neutre	0:00:18.165					
1794.509606	Valence	Neutre	0:00:18.165					
1801.493303	Occlusion frontale	Oui	0:00:02.940					
1804.432841	Occlusion frontale	null	0:00:01.754					
1806.186444	Occlusion frontale	Oui	0:00:04.197					
1808.876964	Parler	Oui	0:00:03.797					
1810.383919	Occlusion frontale	null	0:03:34.090					
1812.674462	Valence	null	0:03:27.474					
1812.674462	Intensité	null	0:03:27.474					
1812.674462	Emotion	null	0:03:27.474					
1812.674462	Degré de certitude	null	0:03:27.474					
1812.674462	Parler	null	0:03:45.230					
1813.262787	Commentaire	Fin induction 3						
2020.131083	Commentaire	Debut induction 4						
2020.148155	Degré de certitude	0 Moyennement sûr	0:00:42.648					
2020.148155	Intensité	0 Neutre	0:00:42.648					
2020.148155	Valence	Neutre	0:00:42.648					
2020.148155	Emotion	Neutre	0:00:42.648					
2024.473961	Occlusion frontale	Oui	0:00:05.819					
2030.293109	Occlusion frontale	null	0:09:42.331					
2037.904477	Parler	Oui	0:00:01.220					
2039.124502	Parler	null	0:00:06.563					
2045.687543	Parler	Oui	0:00:02.110					
2047.797265	Parler	null	0:00:14.998					
2062.795727	Degré de certitude	0 Moyennement sûr	0:00:10.360					
2062.795727	Intensité	-2 Très peu	0:00:10.360					
2062.795727	Emotion	Joie	0:00:10.360					
2062.795727	Parler	Oui	0:00:02.636					
2062.795727	Valence	Positive	0:00:10.360					
2065.431732	Parler	null	0:00:04.352					
2069.784179	Parler	Oui	0:00:04.381					
2073.155807	Degré de certitude	0 Moyennement sûr	0:01:42.143					
2073.155807	Intensité	0 Neutre	0:01:42.143					
2073.155807	Emotion	Neutre	0:01:42.143					
2073.155807	Valence	Neutre	0:01:42.143					
2074.164754	Parler	null	0:00:02.371					
2076.535289	Parler	Oui	0:00:09.330					
2085.865475	Parler	null	0:00:02.062					
2087.927786	Parler	Oui	0:01:12.678					
2160.6056	Parler	null	0:00:20.572					
2175.298409	Intensité	+1 Beaucoup	0:00:02.471					
2175.298409	Degré de certitude	+1 Plutôt sûr	0:00:02.471					
2175.298409	Emotion	Joie	0:00:02.471					
2175.298409	Valence	Positive	0:00:02.471					
2177.769514	Degré de certitude	0 Moyennement sûr	0:00:20.144					
2177.769514	Intensité	-2 Très peu	0:00:20.144					
2177.769514	Emotion	Joie	0:00:20.144					
2177.769514	Valence	Positive	0:00:20.144					
2181.177486	Parler	Oui	0:00:03.318					
2184.495426	Parler	null	0:00:13.138					
2197.633315	Parler	Oui	0:00:02.698					
2197.91312	Intensité	+1 Beaucoup	0:00:02.403					
2197.91312	Degré de certitude	+1 Plutôt sûr	0:00:02.403					
2197.91312	Emotion	Joie	0:00:02.403					
2197.91312	Valence	Positive	0:00:02.403					
2200.316172	Degré de certitude	-1 Peu sûr	0:00:16.286					
2200.316172	Intensité	-2 Très peu	0:00:16.286					
2200.316172	Emotion	Joie	0:00:16.286					
2200.316172	Valence	Positive	0:00:16.286					
2200.331194	Parler	null	0:00:20.509					
2216.601886	Degré de certitude	0 Moyennement sûr	0:00:06.913					
2216.601886	Intensité	-1 Peu	0:00:06.913					
2216.601886	Emotion	Joie	0:00:06.913					
2216.601886	Valence	Positive	0:00:06.913					
2220.840254	Parler	Oui	0:00:02.703					
2223.515371	Degré de certitude	-1 Peu sûr	0:00:19.688					
2223.515371	Intensité	-2 Très peu	0:00:19.688					
2223.515371	Emotion	Joie	0:00:19.688					
2223.515371	Valence	Positive	0:00:19.688					
2223.543133	Parler	null	0:00:11.221					
2234.764417	Parler	Oui	0:00:08.439					
2243.203304	Valence	null	0:04:46.692					
2243.203304	Degré de certitude	null	0:04:46.692					
2243.203304	Emotion	null	0:04:46.692					
2243.203304	Intensité	null	0:04:46.692					
2243.203304	Parler	null	0:04:49.010					
2243.621036	Commentaire	Fin induction 4						
2526.757608	Commentaire	Debut induction 5						
2529.895615	Degré de certitude	0 Moyennement sûr	0:01:37.711					
2529.895615	Intensité	-1 Peu	0:01:37.711					
2529.895615	Emotion	Colère	0:01:37.711					
2529.895615	Valence	Négative	0:01:37.711					
2532.21305	Parler	Oui	0:00:01.620					
2533.833147	Parler	null	0:00:08.929					
2542.761659	Parler	Oui	0:00:16.376					
2559.137888	Parler	null	0:00:18.645					
2577.783039	Parler	Oui	0:00:20.403					
2598.185619	Parler	null	0:00:06.180					
2604.365533	Parler	Oui	0:00:04.665					
2609.030813	Parler	null	0:00:04.617					
2612.62441	Occlusion frontale	Oui	0:00:05.896					
2613.648308	Parler	Oui	0:00:06.490					
2618.520071	Occlusion frontale	null	0:00:11.742					
2620.138568	Parler	null	0:00:05.746					
2625.884695	Parler	Oui	0:00:05.480					
2627.6069	Degré de certitude	-1 Peu sûr	0:00:01.864					
2627.6069	Intensité	-2 Très peu	0:00:01.864					
2627.6069	Emotion	Joie	0:00:01.864					
2627.6069	Valence	Positive	0:00:01.864					
2629.470535	Intensité	-1 Peu	0:00:03.171					
2629.470535	Degré de certitude	-1 Peu sûr	0:00:03.171					
2629.470535	Emotion	Joie	0:00:03.171					
2629.470535	Valence	Positive	0:00:03.171					
2630.262467	Occlusion frontale	Oui	0:00:02.379					
2631.364914	Parler	null	0:00:02.115					
2632.641826	Degré de certitude	-1 Peu sûr	0:00:02.258					
2632.641826	Intensité	-2 Très peu	0:00:02.258					
2632.641826	Emotion	Joie	0:00:02.258					
2632.641826	Occlusion frontale	null	0:03:32.378					
2632.641826	Valence	Positive	0:00:02.258					
2633.479693	Parler	Oui	0:00:01.620					
2634.899478	Intensité	+1 Beaucoup	0:00:02.407					
2634.899478	Degré de certitude	+1 Plutôt sûr	0:00:02.407					
2634.899478	Emotion	Joie	0:00:02.407					
2634.899478	Valence	Positive	0:00:02.407					
2635.099758	Parler	null	0:03:19.298					
2637.306314	Degré de certitude	null	0:03:17.092					
2637.306314	Valence	null	0:03:17.092					
2637.306314	Emotion	null	0:03:17.092					
2637.306314	Intensité	null	0:03:17.092					
2637.92939	Commentaire	Fin induction 5						
2834.394054	Commentaire	Debut induction 6						
2834.39787	Degré de certitude	0 Moyennement sûr	0:00:11.270					
2834.39787	Intensité	0 Neutre	0:00:11.270					
2834.39787	Emotion	Neutre	0:00:11.270					
2834.39787	Valence	Neutre	0:00:11.270					
2834.39787	Parler	Oui	0:00:11.007					
2845.019979	Occlusion droite	Oui	0:00:01.124					
2845.019979	Occlusion frontale	Oui	0:00:00.545					
2845.405261	Parler	null	0:00:02.616					
2845.565473	Occlusion frontale	null	0:00:05.620					
2845.668344	Intensité	+1 Beaucoup	0:00:04.885					
2845.668344	Degré de certitude	+1 Plutôt sûr	0:00:04.885					
2845.668344	Emotion	Joie	0:00:04.885					
2845.668344	Valence	Positive	0:00:04.885					
2846.143965	Occlusion droite	null	0:00:05.042					
2848.021567	Parler	Oui	0:00:02.532					
2850.553234	Valence	null	0:00:00.632					
2850.553234	Parler	null	0:00:00.632					
2850.553234	Emotion	null	0:00:00.632					
2850.553234	Degré de certitude	null	0:00:00.632					
2850.553234	Intensité	null	0:00:00.632					
2851.18556	Commentaire	Fin induction 6						
