Classe	Observable	Code	Durée	Retard	Couleur			
Valence					Color [A=255	 R=206	 G=146	 B=30]
	Positive		0	0	Color [A=255	 R=102	 G=168	 B=9]
	Neutre		0	0	Color [A=255	 R=200	 G=173	 B=58]
	Négative		0	0	Color [A=255	 R=200	 G=76	 B=27]
Emotion					Color [A=255	 R=101	 G=133	 B=207]
	Joie		0	0	Color [A=255	 R=156	 G=176	 B=132]
	Tristesse		0	0	Color [A=255	 R=107	 G=177	 B=201]
	Colère		0	0	Color [A=255	 R=206	 G=185	 B=102]
	Peur		0	0	Color [A=255	 R=126	 G=107	 B=201]
	Surprise		0	0	Color [A=255	 R=163	 G=121	 B=187]
	Dégoût		0	0	Color [A=255	 R=101	 G=133	 B=207]
	Neutre		0	0	Color [A=255	 R=156	 G=176	 B=132]
Intensité					Color [A=255	 R=184	 G=61	 B=104]
	-2 Très peu		0	0	Color [A=255	 R=172	 G=102	 B=187]
	-1 Peu		0	0	Color [A=255	 R=222	 G=108	 B=54]
	0 Neutre		0	0	Color [A=255	 R=249	 G=182	 B=57]
	+1 Beaucoup		0	0	Color [A=255	 R=207	 G=109	 B=164]
	+2 Extrêmement		0	0	Color [A=255	 R=250	 G=141	 B=61]
Degré de certitude					Color [A=255	 R=101	 G=133	 B=207]
	-2 Pas du tout sûr		0	0	Color [A=255	 R=156	 G=176	 B=132]
	-1 Peu sûr		0	0	Color [A=255	 R=107	 G=177	 B=201]
	0 Moyennement sûr		0	0	Color [A=255	 R=206	 G=185	 B=102]
	+1 Plutôt sûr		0	0	Color [A=255	 R=126	 G=107	 B=201]
	+2 Totalement sûr		0	0	Color [A=255	 R=163	 G=121	 B=187]
Soleil					Color [A=255	 R=206	 G=146	 B=30]
	Oui		0	0	Color [A=255	 R=102	 G=168	 B=9]
	Non		0	0	Color [A=255	 R=200	 G=76	 B=27]
Fatigue					Color [A=255	 R=184	 G=61	 B=104]
	Oui		0	0	Color [A=255	 R=172	 G=102	 B=187]
	 Non		0	0	Color [A=255	 R=222	 G=108	 B=54]
Parler					Color [A=255	 R=101	 G=133	 B=207]
	Oui		0	0	Color [A=255	 R=156	 G=176	 B=132]
	Non		0	0	Color [A=255	 R=107	 G=177	 B=201]
Occlusion frontale					Color [A=255	 R=206	 G=146	 B=30]
	Oui		0	0	Color [A=255	 R=102	 G=168	 B=9]
	Non		0	0	Color [A=255	 R=200	 G=76	 B=27]
Occlusion droite					Color [A=255	 R=184	 G=61	 B=104]
	Oui		0	0	Color [A=255	 R=172	 G=102	 B=187]
	Non		0	0	Color [A=255	 R=222	 G=108	 B=54]
								
Durée : Interne aux classes								
								
Date	Classe	Observable	Durée					
								
Start Time	04.01.2017 14:21							
								
0	Commentaire	Debut recording						
233.1588034	Commentaire	Debut neutre						
235.7789606	Degré de certitude	+2 Totalement sûr	0:00:17.185					
235.7789606	Intensité	0 Neutre	0:00:17.185					
235.7789606	Emotion	Neutre	0:00:17.185					
235.7789606	Valence	Neutre	0:00:17.185					
252.9636777	Valence	null	0:08:33.449					
252.9636777	Intensité	null	0:08:33.449					
252.9636777	Degré de certitude	null	0:08:33.449					
252.9636777	Emotion	null	0:08:33.449					
253.0149947	Commentaire	Fin neutre						
766.1409771	Commentaire	Debut induction 1						
766.4125512	Degré de certitude	+1 Plutôt sûr	0:00:01.224					
766.4125512	Intensité	0 Neutre	0:00:01.224					
766.4125512	Valence	Neutre	0:00:01.224					
766.4125512	Emotion	Neutre	0:00:01.224					
766.5767959	Occlusion droite	Oui	0:00:01.408					
766.8114669	Occlusion frontale	Oui	0:00:00.805					
767.616053	Occlusion frontale	null	0:05:54.382					
767.6367618	Degré de certitude	+1 Plutôt sûr	0:00:03.021					
767.6367618	Intensité	-1 Peu	0:00:03.021					
767.6367618	Emotion	Dégoût	0:00:03.021					
767.6367618	Valence	Négative	0:00:03.021					
767.9848217	Occlusion droite	null	0:05:54.165					
768.3701175	Parler	Oui	0:00:01.552					
769.9222803	Parler	null	0:02:38.868					
770.6579232	Degré de certitude	+1 Plutôt sûr	0:00:01.904					
770.6579232	Intensité	0 Neutre	0:00:01.904					
770.6579232	Valence	Neutre	0:00:01.904					
770.6579232	Emotion	Neutre	0:00:01.904					
772.5614943	Intensité	null	0:02:31.819					
772.5614943	Valence	null	0:02:31.819					
772.5614943	Degré de certitude	null	0:02:31.819					
772.5614943	Emotion	null	0:02:31.819					
772.8972171	Commentaire	Fin induction 1						
923.4385469	Commentaire	Debut induction 2						
924.3806976	Degré de certitude	+1 Plutôt sûr	0:00:15.222					
924.3806976	Intensité	-2 Très peu	0:00:15.222					
924.3806976	Valence	Négative	0:00:15.222					
924.3806976	Emotion	Surprise	0:00:15.222					
928.7906779	Parler	Oui	0:00:10.835					
939.6027044	Emotion	null	0:02:13.338					
939.6027044	Degré de certitude	null	0:02:13.338					
939.6027044	Intensité	null	0:02:13.338					
939.6027044	Valence	null	0:02:13.338					
939.6254084	Parler	null	0:02:16.725					
940.2631061	Commentaire	Fin induction 2						
1066.586925	Commentaire	Debut emotion 1						
1072.940769	Degré de certitude	+1 Plutôt sûr	0:00:06.795					
1072.940769	Intensité	0 Neutre	0:00:06.795					
1072.940769	Valence	Neutre	0:00:06.795					
1072.940769	Emotion	Neutre	0:00:06.795					
1076.350772	Parler	Oui	0:00:03.599					
1079.735906	Intensité	+1 Beaucoup	0:00:05.364					
1079.735906	Degré de certitude	+1 Plutôt sûr	0:00:05.364					
1079.735906	Emotion	Joie	0:00:05.364					
1079.735906	Valence	Positive	0:00:05.364					
1079.949904	Parler	null	0:00:03.194					
1083.144027	Parler	Oui	0:00:01.481					
1084.625122	Parler	null	0:00:16.420					
1085.099819	Degré de certitude	+1 Plutôt sûr	0:00:19.887					
1085.099819	Intensité	0 Neutre	0:00:19.887					
1085.099819	Valence	Neutre	0:00:19.887					
1085.099819	Emotion	Neutre	0:00:19.887					
1101.044887	Parler	Oui	0:00:05.116					
1104.986819	Degré de certitude	+1 Plutôt sûr	0:00:17.011					
1104.986819	Intensité	0 Neutre	0:00:17.011					
1104.986819	Valence	Neutre	0:00:17.011					
1104.986819	Emotion	Neutre	0:00:17.011					
1106.160647	Parler	null	0:00:11.607					
1117.768058	Parler	Oui	0:00:08.552					
1121.99772	Degré de certitude	+1 Plutôt sûr	0:00:00.641					
1121.99772	Intensité	0 Neutre	0:00:00.641					
1121.99772	Valence	Neutre	0:00:00.641					
1121.99772	Emotion	Neutre	0:00:00.641					
1121.99772	Occlusion frontale	Oui	0:00:00.681					
1122.149962	Occlusion droite	Oui	0:00:01.926					
1122.639167	Intensité	+1 Beaucoup	0:00:03.729					
1122.639167	Degré de certitude	+1 Plutôt sûr	0:00:03.729					
1122.639167	Emotion	Joie	0:00:03.729					
1122.639167	Valence	Positive	0:00:03.729					
1122.678411	Occlusion frontale	null	0:00:00.914					
1123.5929	Occlusion frontale	Oui	0:00:02.775					
1124.075905	Occlusion droite	null	0:04:03.208					
1126.320385	Parler	null	0:00:09.820					
1126.368147	Intensité	+1 Beaucoup	0:00:14.247					
1126.368147	Degré de certitude	+1 Plutôt sûr	0:00:14.247					
1126.368147	Emotion	Joie	0:00:14.247					
1126.368147	Occlusion frontale	null	0:03:59.774					
1126.368147	Valence	Positive	0:00:14.247					
1136.139993	Parler	Oui	0:00:04.475					
1140.615209	Parler	null	0:03:21.632					
1140.615209	Intensité	null	0:03:18.263					
1140.615209	Valence	null	0:03:18.263					
1140.615209	Degré de certitude	null	0:03:18.263					
1140.615209	Emotion	null	0:03:18.263					
1140.844093	Commentaire	Fin emotion 1						
1338.473935	Commentaire	Debut induction 3						
1338.877757	Degré de certitude	+1 Plutôt sûr	0:00:05.656					
1338.877757	Intensité	0 Neutre	0:00:05.656					
1338.877757	Valence	Neutre	0:00:05.656					
1338.877757	Emotion	Neutre	0:00:05.656					
1342.24715	Parler	Oui	0:00:06.118					
1344.533669	Degré de certitude	+1 Plutôt sûr	0:00:10.548					
1344.533669	Intensité	-1 Peu	0:00:10.548					
1344.533669	Emotion	Joie	0:00:10.548					
1344.533669	Valence	Positive	0:00:10.548					
1348.364868	Parler	null	0:00:05.713					
1354.077538	Parler	Oui	0:00:05.017					
1355.081669	Degré de certitude	+1 Plutôt sûr	0:01:29.370					
1355.081669	Intensité	0 Neutre	0:01:29.370					
1355.081669	Emotion	Neutre	0:01:29.370					
1355.081669	Valence	Neutre	0:01:29.370					
1359.094114	Parler	null	0:00:25.724					
1366.142325	Occlusion frontale	Oui	0:00:04.703					
1367.283522	Occlusion droite	Oui	0:00:03.381					
1370.66455	Occlusion droite	null	0:00:05.648					
1370.845557	Occlusion frontale	null	0:00:04.362					
1375.207339	Occlusion frontale	Oui	0:00:07.241					
1376.31276	Occlusion droite	Oui	0:00:06.135					
1382.448134	Occlusion droite	null	0:15:47.031					
1382.448134	Occlusion frontale	null	0:00:39.777					
1384.818055	Parler	Oui	0:00:03.450					
1388.268262	Parler	null	0:00:04.520					
1392.788042	Parler	Oui	0:00:08.456					
1401.243867	Parler	null	0:00:11.442					
1412.686316	Parler	Oui	0:00:03.779					
1416.465734	Parler	null	0:06:07.614					
1422.2253	Occlusion frontale	Oui	0:00:04.444					
1426.669784	Occlusion frontale	null	0:00:00.268					
1426.937979	Occlusion frontale	Oui	0:00:02.324					
1429.262085	Occlusion frontale	null	0:10:21.874					
1444.452064	Emotion	null	0:05:39.628					
1444.452064	Valence	null	0:05:39.628					
1444.452064	Degré de certitude	null	0:05:39.628					
1444.452064	Intensité	null	0:05:39.628					
1445.121131	Commentaire	Fin induction 3						
1783.953687	Commentaire	Debut emotion 2						
1784.079893	Degré de certitude	+1 Plutôt sûr	0:00:46.021					
1784.079893	Intensité	-1 Peu	0:00:46.021					
1784.079893	Emotion	Joie	0:00:46.021					
1784.079893	Parler	Oui	0:00:19.180					
1784.079893	Valence	Positive	0:00:46.021					
1803.26006	Parler	null	0:00:04.092					
1807.35256	Parler	Oui	0:00:03.374					
1810.726937	Parler	null	0:00:04.801					
1815.527559	Parler	Oui	0:00:04.584					
1820.112	Parler	null	0:03:44.212					
1830.100977	Degré de certitude	null	0:03:33.910					
1830.100977	Intensité	null	0:03:33.910					
1830.100977	Valence	null	0:03:33.910					
1830.100977	Emotion	null	0:03:33.910					
1830.100977	Commentaire	Fin emotion 2						
2043.330678	Commentaire	Debut emotion 3						
2044.010725	Degré de certitude	0 Moyennement sûr	0:00:30.638					
2044.010725	Intensité	-1 Peu	0:00:30.638					
2044.010725	Emotion	Colère	0:00:30.638					
2044.010725	Valence	Négative	0:00:30.638					
2044.323824	Parler	Oui	0:00:02.030					
2046.353905	Parler	null	0:00:06.642					
2051.136209	Occlusion frontale	Oui	0:00:03.639					
2052.995772	Parler	Oui	0:00:21.653					
2054.775614	Occlusion frontale	null	0:04:34.605					
2074.648359	Degré de certitude	null	0:02:25.548					
2074.648359	Emotion	null	0:02:25.548					
2074.648359	Parler	null	0:02:25.548					
2074.648359	Intensité	null	0:02:25.548					
2074.648359	Valence	null	0:02:25.548					
2075.865098	Commentaire	Fin emotion 3						
2219.78473	Commentaire	Debut emotion 4						
2220.196766	Intensité	+1 Beaucoup	0:00:31.026					
2220.196766	Degré de certitude	0 Moyennement sûr	0:00:31.026					
2220.196766	Emotion	Joie	0:00:31.026					
2220.196766	Parler	Oui	0:00:31.026					
2220.196766	Valence	Positive	0:00:31.026					
2251.223007	Emotion	null	0:00:48.403					
2251.223007	Parler	null	0:00:57.701					
2251.223007	Valence	null	0:00:48.403					
2251.223007	Intensité	null	0:00:48.403					
2251.223007	Degré de certitude	null	0:00:48.403					
2253.13299	Commentaire	Fin emotion 4						
2299.609086	Commentaire	Debut induction 4						
2299.625964	Degré de certitude	0 Moyennement sûr	0:00:13.883					
2299.625964	Intensité	0 Neutre	0:00:13.883					
2299.625964	Valence	Neutre	0:00:13.883					
2299.625964	Emotion	Neutre	0:00:13.883					
2308.92411	Parler	Oui	0:00:12.576					
2313.508551	Degré de certitude	0 Moyennement sûr	0:00:05.931					
2313.508551	Intensité	-1 Peu	0:00:05.931					
2313.508551	Emotion	Joie	0:00:05.931					
2313.508551	Valence	Positive	0:00:05.931					
2319.439876	Degré de certitude	0 Moyennement sûr	0:00:09.941					
2319.439876	Intensité	0 Neutre	0:00:09.941					
2319.439876	Emotion	Neutre	0:00:09.941					
2319.439876	Valence	Neutre	0:00:09.941					
2321.499613	Parler	null	0:00:20.089					
2329.38087	Degré de certitude	-1 Peu sûr	0:00:01.509					
2329.38087	Intensité	-2 Très peu	0:00:01.509					
2329.38087	Emotion	Joie	0:00:01.509					
2329.38087	Occlusion frontale	Oui	0:00:01.509					
2329.38087	Valence	Positive	0:00:01.509					
2329.479338	Occlusion droite	Oui	0:00:01.017					
2330.49594	Occlusion droite	null	0:08:02.258					
2330.889744	Degré de certitude	0 Moyennement sûr	0:00:01.206					
2330.889744	Intensité	0 Neutre	0:00:01.206					
2330.889744	Valence	Neutre	0:00:01.206					
2330.889744	Emotion	Neutre	0:00:01.206					
2330.889744	Occlusion frontale	null	0:08:01.473					
2332.095726	Degré de certitude	0 Moyennement sûr	0:00:10.494					
2332.095726	Intensité	-1 Peu	0:00:10.494					
2332.095726	Emotion	Joie	0:00:10.494					
2332.095726	Valence	Positive	0:00:10.494					
2341.588837	Parler	Oui	0:00:01.014					
2342.589348	Degré de certitude	0 Moyennement sûr	0:00:03.044					
2342.589348	Intensité	-2 Très peu	0:00:03.044					
2342.589348	Emotion	Joie	0:00:03.044					
2342.589348	Valence	Positive	0:00:03.044					
2342.602938	Parler	null	0:07:32.839					
2345.633653	Degré de certitude	0 Moyennement sûr	0:00:00.121					
2345.633653	Intensité	-2 Très peu	0:00:00.121					
2345.633653	Emotion	Joie	0:00:00.121					
2345.633653	Valence	Positive	0:00:00.121					
2345.754841	Emotion	null	0:07:29.687					
2345.754841	Valence	null	0:07:29.687					
2345.754841	Intensité	null	0:07:29.687					
2345.754841	Degré de certitude	null	0:07:29.687					
2347.234872	Commentaire	Fin induction 4						
2795.339397	Commentaire	Debut induction 5						
2795.442305	Degré de certitude	0 Moyennement sûr	0:01:30.152					
2795.442305	Intensité	0 Neutre	0:01:30.152					
2795.442305	Valence	Neutre	0:01:30.152					
2795.442305	Emotion	Neutre	0:01:30.152					
2795.442305	Parler	Oui	0:00:14.946					
2810.388234	Parler	null	0:00:23.869					
2812.363115	Occlusion frontale	Oui	0:00:13.585					
2812.754108	Occlusion droite	Oui	0:00:13.194					
2825.948474	Occlusion droite	null	0:01:08.901					
2825.948474	Occlusion frontale	null	0:00:59.646					
2834.25771	Parler	Oui	0:00:05.060					
2839.317811	Parler	null	0:00:07.878					
2847.196178	Parler	Oui	0:00:34.886					
2882.081876	Parler	null	0:00:10.399					
2885.59428	Degré de certitude	-1 Peu sûr	0:00:01.313					
2885.59428	Intensité	-2 Très peu	0:00:01.313					
2885.59428	Emotion	Joie	0:00:01.313					
2885.59428	Occlusion frontale	Oui	0:00:01.313					
2885.59428	Valence	Positive	0:00:01.313					
2886.907355	Intensité	+1 Beaucoup	0:00:03.025					
2886.907355	Degré de certitude	0 Moyennement sûr	0:00:03.025					
2886.907355	Emotion	Joie	0:00:03.025					
2886.907355	Occlusion frontale	null	0:00:07.943					
2886.907355	Valence	Positive	0:00:03.025					
2889.932228	Degré de certitude	0 Moyennement sûr	0:01:46.053					
2889.932228	Intensité	0 Neutre	0:01:46.053					
2889.932228	Valence	Neutre	0:01:46.053					
2889.932228	Emotion	Neutre	0:01:46.053					
2892.480818	Parler	Oui	0:00:13.653					
2894.8499	Occlusion frontale	Oui	0:00:08.324					
2894.8499	Occlusion droite	Oui	0:00:14.078					
2903.17392	Occlusion frontale	null	0:00:01.620					
2904.793878	Occlusion frontale	Oui	0:00:01.734					
2906.133828	Parler	null	0:00:05.755					
2906.527839	Occlusion frontale	null	0:00:01.224					
2907.751782	Occlusion frontale	Oui	0:00:02.705					
2908.927749	Occlusion droite	null	0:00:00.335					
2909.262994	Occlusion droite	Oui	0:00:01.194					
2910.456543	Occlusion droite	null	0:00:16.252					
2910.456543	Occlusion frontale	null	0:00:05.132					
2911.888519	Parler	Oui	0:00:03.650					
2915.538592	Parler	null	0:01:03.797					
2915.588117	Occlusion frontale	Oui	0:00:29.082					
2926.708494	Occlusion droite	Oui	0:00:02.028					
2928.736205	Occlusion droite	null	0:00:10.142					
2938.877839	Occlusion droite	Oui	0:00:00.235					
2939.11251	Occlusion droite	null	0:00:02.438					
2941.55092	Occlusion droite	Oui	0:00:00.168					
2941.718542	Occlusion droite	null	0:00:03.855					
2944.670083	Occlusion frontale	null	0:00:01.755					
2945.573081	Occlusion droite	Oui	0:00:04.158					
2946.425139	Occlusion frontale	Oui	0:00:07.803					
2949.731482	Occlusion droite	null	0:03:20.374					
2954.228124	Occlusion frontale	null	0:00:00.201					
2954.429271	Occlusion frontale	Oui	0:00:02.946					
2957.375296	Occlusion frontale	null	0:00:02.305					
2959.680501	Occlusion frontale	Oui	0:00:07.216					
2966.896018	Occlusion frontale	null	0:00:00.852					
2967.747599	Occlusion frontale	Oui	0:00:01.763					
2969.510921	Occlusion frontale	null	0:00:22.256					
2979.335157	Parler	Oui	0:00:06.285					
2985.620408	Parler	null	0:00:05.841					
2991.461106	Parler	Oui	0:00:14.604					
2991.767049	Occlusion frontale	Oui	0:00:00.235					
2992.00172	Occlusion frontale	null	0:02:39.478					
2995.985331	Degré de certitude	0 Moyennement sûr	0:00:08.725					
2995.985331	Intensité	-2 Très peu	0:00:08.725					
2995.985331	Emotion	Joie	0:00:08.725					
2995.985331	Valence	Positive	0:00:08.725					
3004.710716	Degré de certitude	0 Moyennement sûr	0:00:01.341					
3004.710716	Intensité	0 Neutre	0:00:01.341					
3004.710716	Emotion	Neutre	0:00:01.341					
3004.710716	Valence	Neutre	0:00:01.341					
3006.051817	Valence	null	0:02:23.551					
3006.051817	Emotion	null	0:02:23.551					
3006.051817	Intensité	null	0:02:23.551					
3006.051817	Degré de certitude	null	0:02:23.551					
3006.065593	Parler	null	0:02:24.053					
3006.568058	Commentaire	Fin induction 5						
3147.923445	Commentaire	Debut induction 6						
3149.602355	Degré de certitude	+1 Plutôt sûr	0:00:03.146					
3149.602355	Intensité	0 Neutre	0:00:03.146					
3149.602355	Emotion	Neutre	0:00:03.146					
3149.602355	Valence	Neutre	0:00:03.146					
3150.105222	Occlusion droite	Oui	0:00:00.134					
3150.118093	Parler	Oui	0:00:23.116					
3150.239319	Occlusion droite	null	0:00:00.503					
3150.742186	Occlusion droite	Oui	0:00:02.648					
3151.479723	Occlusion frontale	Oui	0:00:02.213					
3152.748134	Degré de certitude	+1 Plutôt sûr	0:00:20.476					
3152.748134	Intensité	-1 Peu	0:00:20.476					
3152.748134	Emotion	Joie	0:00:20.476					
3152.748134	Valence	Positive	0:00:20.476					
3153.390615	Occlusion droite	null	0:00:00.201					
3153.591762	Occlusion droite	Oui	0:00:00.268					
3153.692335	Occlusion frontale	null	0:00:01.073					
3153.859957	Occlusion droite	null	0:00:00.268					
3154.128152	Occlusion droite	Oui	0:00:11.936					
3154.765116	Occlusion frontale	Oui	0:00:10.394					
3165.159075	Occlusion frontale	null	0:00:02.172					
3166.064234	Occlusion droite	null	0:00:02.240					
3167.331491	Occlusion frontale	Oui	0:00:05.892					
3168.304183	Occlusion droite	Oui	0:00:04.920					
3173.223953	Occlusion droite	null	0:00:00.754					
3173.223953	Emotion	null	0:00:00.754					
3173.223953	Valence	null	0:00:00.754					
3173.223953	Degré de certitude	null	0:00:00.754					
3173.223953	Intensité	null	0:00:00.754					
3173.223953	Occlusion frontale	null	0:00:00.754					
3173.234018	Parler	null	0:00:00.744					
3173.978131	Commentaire	Fin induction 6						
