Classe	Observable	Code	Durée	Retard	Couleur			
Valence					Color [A=255	 R=206	 G=146	 B=30]
	Positive		0	0	Color [A=255	 R=102	 G=168	 B=9]
	Neutre		0	0	Color [A=255	 R=200	 G=173	 B=58]
	Négative		0	0	Color [A=255	 R=200	 G=76	 B=27]
Emotion					Color [A=255	 R=101	 G=133	 B=207]
	Joie		0	0	Color [A=255	 R=156	 G=176	 B=132]
	Tristesse		0	0	Color [A=255	 R=107	 G=177	 B=201]
	Colère		0	0	Color [A=255	 R=206	 G=185	 B=102]
	Peur		0	0	Color [A=255	 R=126	 G=107	 B=201]
	Surprise		0	0	Color [A=255	 R=163	 G=121	 B=187]
	Dégoût		0	0	Color [A=255	 R=101	 G=133	 B=207]
	Neutre		0	0	Color [A=255	 R=156	 G=176	 B=132]
Intensité					Color [A=255	 R=184	 G=61	 B=104]
	-2 Très peu		0	0	Color [A=255	 R=172	 G=102	 B=187]
	-1 Peu		0	0	Color [A=255	 R=222	 G=108	 B=54]
	0 Neutre		0	0	Color [A=255	 R=249	 G=182	 B=57]
	+1 Beaucoup		0	0	Color [A=255	 R=207	 G=109	 B=164]
	+2 Extrêmement		0	0	Color [A=255	 R=250	 G=141	 B=61]
Degré de certitude					Color [A=255	 R=101	 G=133	 B=207]
	-2 Pas du tout sûr		0	0	Color [A=255	 R=156	 G=176	 B=132]
	-1 Peu sûr		0	0	Color [A=255	 R=107	 G=177	 B=201]
	0 Moyennement sûr		0	0	Color [A=255	 R=206	 G=185	 B=102]
	+1 Plutôt sûr		0	0	Color [A=255	 R=163	 G=121	 B=187]
	+2 Totalement sûr		0	0	Color [A=255	 R=126	 G=107	 B=201]
Soleil					Color [A=255	 R=206	 G=146	 B=30]
	Oui		0	0	Color [A=255	 R=102	 G=168	 B=9]
	Non		0	0	Color [A=255	 R=200	 G=76	 B=27]
Fatigue					Color [A=255	 R=184	 G=61	 B=104]
	Oui		0	0	Color [A=255	 R=172	 G=102	 B=187]
	Non		0	0	Color [A=255	 R=222	 G=108	 B=54]
Parler					Color [A=255	 R=101	 G=133	 B=207]
	Oui		0	0	Color [A=255	 R=156	 G=176	 B=132]
	Non		0	0	Color [A=255	 R=107	 G=177	 B=201]
Occlusion frontale					Color [A=255	 R=206	 G=146	 B=30]
	Oui		0	0	Color [A=255	 R=102	 G=168	 B=9]
	Non		0	0	Color [A=255	 R=200	 G=76	 B=27]
Occlusion droite					Color [A=255	 R=184	 G=61	 B=104]
	Oui		0	0	Color [A=255	 R=172	 G=102	 B=187]
	Non		0	0	Color [A=255	 R=222	 G=108	 B=54]
								
Durée : Interne aux classes								
								
Date	Classe	Observable	Durée					
								
Start Time	03.01.2017 15:01							
								
0	Commentaire	Debut recording						
451.1227418	Commentaire	Debut neutre						
451.1227418	Degré de certitude	+2 Totalement sûr	0:00:17.771					
451.1227418	Intensité	0 Neutre	0:00:17.771					
451.1227418	Emotion	Neutre	0:00:17.771					
451.1227418	Valence	Neutre	0:00:17.771					
468.8934592	Intensité	null	0:06:34.983					
468.8934592	Valence	null	0:06:34.983					
468.8934592	Degré de certitude	null	0:06:34.983					
468.8934592	Emotion	null	0:06:34.983					
469.1631026	Commentaire	Fin neutre						
863.6000533	Commentaire	Debut induction 1						
863.8765733	Degré de certitude	+1 Plutôt sûr	0:00:00.902					
863.8765733	Intensité	0 Neutre	0:00:00.902					
863.8765733	Valence	Neutre	0:00:00.902					
863.8765733	Emotion	Neutre	0:00:00.902					
864.7600691	Parler	Oui	0:00:01.215					
864.7786947	Degré de certitude	+1 Plutôt sûr	0:00:04.308					
864.7786947	Intensité	-2 Très peu	0:00:04.308					
864.7786947	Emotion	Dégoût	0:00:04.308					
864.7786947	Valence	Négative	0:00:04.308					
865.9752878	Parler	null	0:01:24.786					
869.0871425	Degré de certitude	+1 Plutôt sûr	0:00:01.198					
869.0871425	Intensité	-1 Peu	0:00:01.198					
869.0871425	Emotion	Dégoût	0:00:01.198					
869.0871425	Valence	Négative	0:00:01.198					
870.2851119	Degré de certitude	+1 Plutôt sûr	0:00:04.413					
870.2851119	Intensité	-2 Très peu	0:00:04.413					
870.2851119	Emotion	Dégoût	0:00:04.413					
870.2851119	Valence	Négative	0:00:04.413					
874.6984982	Intensité	null	0:01:16.063					
874.6984982	Degré de certitude	null	0:01:16.063					
874.6984982	Emotion	null	0:01:16.063					
874.6984982	Valence	null	0:01:16.063					
874.7972165	Commentaire	Fin induction 1						
950.4806404	Commentaire	Debut induction 2						
950.7611783	Degré de certitude	+1 Plutôt sûr	0:00:01.237					
950.7611783	Intensité	-2 Très peu	0:00:01.237					
950.7611783	Emotion	Joie	0:00:01.237					
950.7611783	Parler	Oui	0:00:02.741					
950.7611783	Valence	Positive	0:00:01.237					
951.9977768	Intensité	+1 Beaucoup	0:00:11.949					
951.9977768	Degré de certitude	+1 Plutôt sûr	0:00:11.949					
951.9977768	Valence	Négative	0:00:11.949					
951.9977768	Emotion	Surprise	0:00:11.949					
953.5017034	Parler	null	0:00:03.043					
954.1560891	Occlusion droite	Oui	0:00:05.618					
956.5451826	Parler	Oui	0:00:06.896					
959.7740488	Occlusion droite	null	0:03:35.929					
962.4589259	Occlusion frontale	Oui	0:00:01.488					
963.4414237	Parler	null	0:02:37.021					
963.946442	Intensité	null	0:02:36.448					
963.946442	Emotion	null	0:02:36.448					
963.946442	Valence	null	0:02:36.448					
963.946442	Occlusion frontale	null	0:03:03.269					
963.946442	Degré de certitude	null	0:02:36.448					
963.9968081	Commentaire	Fin induction 2						
1120.030384	Commentaire	Debut induction 3						
1120.394547	Degré de certitude	+1 Plutôt sûr	0:00:33.095					
1120.394547	Intensité	0 Neutre	0:00:33.095					
1120.394547	Valence	Neutre	0:00:33.095					
1120.394547	Emotion	Neutre	0:00:33.095					
1120.462875	Parler	Oui	0:00:45.338					
1147.21587	Occlusion frontale	Oui	0:00:19.659					
1153.489888	Degré de certitude	indef	0:00:12.447					
1153.489888	Intensité	indef	0:00:12.447					
1153.489888	Emotion	indef	0:00:12.447					
1153.489888	Valence	indef	0:00:12.447					
1165.800461	Parler	null	0:01:03.325					
1165.936475	Intensité	0 Neutre	0:00:12.155					
1165.936475	Degré de certitude	-1 Peu sûr	0:00:12.155					
1165.936475	Emotion	Neutre	0:00:12.155					
1165.936475	Valence	Neutre	0:00:12.155					
1166.875155	Occlusion frontale	Oui	0:00:11.216					
1175.702991	Occlusion droite	Oui	0:00:00.601					
1176.303592	Occlusion droite	null	0:01:21.274					
1178.091308	Degré de certitude	+1 Plutôt sûr	0:00:34.645					
1178.091308	Intensité	0 Neutre	0:00:34.645					
1178.091308	Emotion	Neutre	0:00:34.645					
1178.091308	Valence	Neutre	0:00:34.645					
1178.091308	Occlusion frontale	null	0:00:12.051					
1190.142393	Occlusion frontale	Oui	0:00:03.262					
1193.404062	Occlusion frontale	null	0:00:19.332					
1212.735868	Intensité	0 Neutre	0:00:15.818					
1212.735868	Degré de certitude	-1 Peu sûr	0:00:15.818					
1212.735868	Valence	Neutre	0:00:15.818					
1212.735868	Emotion	Neutre	0:00:15.818					
1212.735868	Occlusion frontale	Oui	0:00:07.940					
1220.675758	Occlusion frontale	null	0:00:00.834					
1221.509926	Occlusion frontale	Oui	0:00:07.044					
1228.554001	Degré de certitude	+1 Plutôt sûr	0:00:07.783					
1228.554001	Intensité	0 Neutre	0:00:07.783					
1228.554001	Emotion	Neutre	0:00:07.783					
1228.554001	Valence	Neutre	0:00:07.783					
1228.554001	Occlusion frontale	null	0:00:07.783					
1229.125565	Parler	Oui	0:00:48.308					
1236.336574	Degré de certitude	indef	0:00:02.240					
1236.336574	Intensité	indef	0:00:02.240					
1236.336574	Emotion	indef	0:00:02.240					
1236.336574	Occlusion frontale	Oui	0:00:02.240					
1236.336574	Valence	indef	0:00:02.240					
1238.576471	Degré de certitude	+1 Plutôt sûr	0:00:03.902					
1238.576471	Intensité	0 Neutre	0:00:03.902					
1238.576471	Emotion	Neutre	0:00:03.902					
1238.576471	Valence	Neutre	0:00:03.902					
1238.576471	Occlusion frontale	null	0:00:03.902					
1242.478747	Degré de certitude	0 Moyennement sûr	0:00:35.120					
1242.478747	Intensité	0 Neutre	0:00:35.120					
1242.478747	Emotion	Neutre	0:00:35.120					
1242.478747	Valence	Neutre	0:00:35.120					
1242.478747	Occlusion frontale	Oui	0:00:35.120					
1257.577727	Occlusion droite	Oui	0:00:01.072					
1257.90117	Soleil	Oui	0:00:24.136					
1258.650085	Occlusion droite	null	0:00:00.973					
1259.622964	Occlusion droite	Oui	0:00:00.300					
1259.923265	Occlusion droite	null	0:00:49.051					
1277.433436	Parler	null	0:00:03.968					
1277.598425	Degré de certitude	+1 Plutôt sûr	0:00:10.499					
1277.598425	Intensité	+1 Beaucoup	0:00:10.499					
1277.598425	Valence	Négative	0:00:10.499					
1277.598425	Occlusion frontale	null	0:00:01.560					
1277.598425	Emotion	Surprise	0:00:10.499					
1277.654195	Commentaire	Debut feu presque grillé						
1279.15829	Occlusion frontale	Oui	0:00:01.960					
1281.118484	Occlusion frontale	null	0:00:06.825					
1281.401248	Parler	Oui	0:00:16.426					
1282.037136	Soleil	null	0:11:08.127					
1287.943632	Occlusion frontale	Oui	0:00:00.154					
1288.097741	Degré de certitude	+1 Plutôt sûr	0:00:00.405					
1288.097741	Intensité	0 Neutre	0:00:00.405					
1288.097741	Valence	Neutre	0:00:00.405					
1288.097741	Emotion	Neutre	0:00:00.405					
1288.097741	Occlusion frontale	null	0:00:00.405					
1288.212923	Commentaire	Fin feu presque grillé						
1288.502407	Degré de certitude	indef	0:00:08.692					
1288.502407	Intensité	indef	0:00:08.692					
1288.502407	Emotion	indef	0:00:08.692					
1288.502407	Occlusion frontale	Oui	0:00:08.692					
1288.502407	Valence	indef	0:00:08.692					
1297.194197	Degré de certitude	+1 Plutôt sûr	0:02:22.682					
1297.194197	Intensité	0 Neutre	0:02:22.682					
1297.194197	Valence	Neutre	0:02:22.682					
1297.194197	Emotion	Neutre	0:02:22.682					
1297.194197	Occlusion frontale	null	0:00:01.661					
1297.827222	Parler	null	0:00:13.905					
1298.854947	Occlusion frontale	Oui	0:00:01.894					
1300.748869	Occlusion frontale	null	0:00:08.226					
1308.974736	Occlusion frontale	Oui	0:00:01.868					
1308.974736	Occlusion droite	Oui	0:00:01.868					
1310.842599	Occlusion droite	null	0:02:28.634					
1310.842599	Occlusion frontale	null	0:01:57.820					
1311.732341	Parler	Oui	0:01:17.428					
1389.160597	Parler	null	0:00:13.578					
1402.738383	Parler	Oui	0:00:26.351					
1428.662521	Occlusion frontale	Oui	0:00:02.264					
1429.089853	Parler	null	0:00:11.953					
1430.92604	Occlusion frontale	null	0:00:00.400					
1431.32644	Occlusion frontale	Oui	0:00:00.767					
1432.093874	Occlusion frontale	null	0:00:00.667					
1432.761208	Occlusion frontale	Oui	0:00:04.293					
1437.054257	Occlusion frontale	null	0:00:21.379					
1439.875926	Intensité	indef	0:00:18.557					
1439.875926	Degré de certitude	indef	0:00:18.557					
1439.875926	Emotion	indef	0:00:18.557					
1439.875926	Valence	indef	0:00:18.557					
1441.043096	Parler	Oui	0:00:08.888					
1449.931462	Parler	null	0:00:03.122					
1453.053838	Parler	Oui	0:00:03.210					
1456.263965	Parler	null	0:00:10.906					
1458.433038	Degré de certitude	+1 Plutôt sûr	0:00:22.973					
1458.433038	Intensité	0 Neutre	0:00:22.973					
1458.433038	Emotion	Neutre	0:00:22.973					
1458.433038	Valence	Neutre	0:00:22.973					
1458.433038	Occlusion frontale	Oui	0:00:03.639					
1459.477053	Occlusion droite	Oui	0:00:02.299					
1461.775725	Occlusion droite	null	0:06:52.134					
1462.07181	Occlusion frontale	null	0:00:00.434					
1462.505577	Occlusion frontale	Oui	0:00:05.324					
1467.169811	Parler	Oui	0:00:14.244					
1467.829291	Occlusion frontale	null	0:06:45.820					
1481.406334	Emotion	null	0:02:49.982					
1481.406334	Degré de certitude	null	0:02:49.982					
1481.406334	Intensité	null	0:02:49.982					
1481.406334	Valence	null	0:02:49.982					
1481.413917	Parler	null	0:02:49.975					
1481.571068	Commentaire	Fin induction 3						
1651.288536	Commentaire	Debut emotion 1						
1651.38845	Degré de certitude	0 Moyennement sûr	0:00:00.899					
1651.38845	Intensité	0 Neutre	0:00:00.899					
1651.38845	Valence	Neutre	0:00:00.899					
1651.38845	Emotion	Neutre	0:00:00.899					
1651.38845	Parler	Oui	0:00:04.055					
1652.287613	Degré de certitude	0 Moyennement sûr	0:00:12.760					
1652.287613	Intensité	-1 Peu	0:00:12.760					
1652.287613	Emotion	Joie	0:00:12.760					
1652.287613	Valence	Positive	0:00:12.760					
1655.443531	Parler	null	0:00:01.700					
1657.143571	Parler	Oui	0:00:07.904					
1665.048017	Intensité	null	0:03:05.931					
1665.048017	Valence	null	0:03:05.931					
1665.048017	Emotion	null	0:03:05.931					
1665.048017	Degré de certitude	null	0:03:05.931					
1665.048017	Parler	null	0:03:07.226					
1665.067059	Commentaire	Fin emotion 1						
1849.349022	Commentaire	Debut induction 4						
1850.978571	Intensité	+1 Beaucoup	0:00:22.671					
1850.978571	Degré de certitude	+1 Plutôt sûr	0:00:22.671					
1850.978571	Emotion	Joie	0:00:22.671					
1850.978571	Valence	Positive	0:00:22.671					
1852.274248	Parler	Oui	0:00:01.590					
1853.86428	Parler	null	0:00:03.014					
1856.878345	Parler	Oui	0:00:08.753					
1865.63086	Parler	null	0:00:48.799					
1873.649091	Degré de certitude	+1 Plutôt sûr	0:00:01.675					
1873.649091	Intensité	-2 Très peu	0:00:01.675					
1873.649091	Emotion	Joie	0:00:01.675					
1873.649091	Occlusion frontale	Oui	0:00:01.675					
1873.649091	Valence	Positive	0:00:01.675					
1873.909967	Occlusion droite	Oui	0:00:01.168					
1875.077941	Occlusion droite	null	0:00:04.526					
1875.324446	Degré de certitude	+1 Plutôt sûr	0:00:04.279					
1875.324446	Intensité	-1 Peu	0:00:04.279					
1875.324446	Emotion	Joie	0:00:04.279					
1875.324446	Occlusion frontale	null	0:00:04.279					
1875.324446	Valence	Positive	0:00:04.279					
1879.60385	Degré de certitude	+1 Plutôt sûr	0:00:08.916					
1879.60385	Intensité	0 Neutre	0:00:08.916					
1879.60385	Emotion	Neutre	0:00:08.916					
1879.60385	Valence	Neutre	0:00:08.916					
1879.60385	Occlusion droite	Oui	0:00:01.366					
1879.60385	Occlusion frontale	Oui	0:00:01.366					
1880.969674	Occlusion frontale	null	0:00:58.078					
1880.969674	Occlusion droite	null	0:00:21.993					
1888.520204	Degré de certitude	+1 Plutôt sûr	0:00:06.401					
1888.520204	Intensité	-2 Très peu	0:00:06.401					
1888.520204	Emotion	Joie	0:00:06.401					
1888.520204	Valence	Positive	0:00:06.401					
1894.921452	Degré de certitude	+1 Plutôt sûr	0:00:21.068					
1894.921452	Intensité	-1 Peu	0:00:21.068					
1894.921452	Emotion	Joie	0:00:21.068					
1894.921452	Valence	Positive	0:00:21.068					
1902.96259	Occlusion droite	Oui	0:00:01.386					
1904.349087	Occlusion droite	null	0:01:50.336					
1914.429555	Parler	Oui	0:00:02.161					
1915.989221	Intensité	+1 Beaucoup	0:00:03.397					
1915.989221	Degré de certitude	+1 Plutôt sûr	0:00:03.397					
1915.989221	Emotion	Joie	0:00:03.397					
1915.989221	Valence	Positive	0:00:03.397					
1916.5906	Parler	null	0:00:08.198					
1919.386576	Degré de certitude	+1 Plutôt sûr	0:00:19.661					
1919.386576	Intensité	-1 Peu	0:00:19.661					
1919.386576	Emotion	Joie	0:00:19.661					
1919.386576	Valence	Positive	0:00:19.661					
1924.788773	Parler	Oui	0:00:02.345					
1927.133488	Parler	null	0:00:08.782					
1935.915341	Parler	Oui	0:00:04.460					
1939.047283	Degré de certitude	+1 Plutôt sûr	0:00:09.924					
1939.047283	Intensité	-2 Très peu	0:00:09.924					
1939.047283	Emotion	Joie	0:00:09.924					
1939.047283	Occlusion frontale	Oui	0:00:32.453					
1939.047283	Valence	Positive	0:00:09.924					
1940.37543	Parler	null	0:00:07.434					
1947.809258	Parler	Oui	0:01:36.657					
1948.971666	Degré de certitude	+1 Plutôt sûr	0:00:02.025					
1948.971666	Intensité	-1 Peu	0:00:02.025					
1948.971666	Emotion	Joie	0:00:02.025					
1948.971666	Valence	Positive	0:00:02.025					
1950.164233	Soleil	Oui	0:00:29.206					
1950.99667	Degré de certitude	+1 Plutôt sûr	0:00:48.698					
1950.99667	Intensité	-2 Très peu	0:00:48.698					
1950.99667	Emotion	Joie	0:00:48.698					
1950.99667	Valence	Positive	0:00:48.698					
1971.500238	Occlusion frontale	null	0:00:00.992					
1972.492156	Occlusion frontale	Oui	0:00:27.203					
1979.370402	Soleil	null	0:00:46.483					
1999.694979	Degré de certitude	+1 Plutôt sûr	0:00:16.393					
1999.694979	Intensité	0 Neutre	0:00:16.393					
1999.694979	Emotion	Neutre	0:00:16.393					
1999.694979	Valence	Neutre	0:00:16.393					
1999.694979	Occlusion frontale	null	0:00:10.000					
2009.695338	Occlusion frontale	Oui	0:00:06.392					
2014.684976	Occlusion droite	Oui	0:00:01.403					
2016.087553	Degré de certitude	+1 Plutôt sûr	0:00:03.820					
2016.087553	Intensité	-1 Peu	0:00:03.820					
2016.087553	Emotion	Joie	0:00:03.820					
2016.087553	Occlusion frontale	null	0:00:03.820					
2016.087553	Occlusion droite	null	0:00:24.657					
2016.087553	Valence	Positive	0:00:03.820					
2019.907655	Degré de certitude	+1 Plutôt sûr	0:00:23.429					
2019.907655	Intensité	0 Neutre	0:00:23.429					
2019.907655	Valence	Neutre	0:00:23.429					
2019.907655	Emotion	Neutre	0:00:23.429					
2019.907655	Occlusion frontale	Oui	0:00:10.746					
2025.853075	Soleil	Oui	0:00:05.885					
2030.653393	Occlusion frontale	null	0:00:12.683					
2031.73831	Soleil	null	0:00:11.350					
2040.744444	Occlusion droite	Oui	0:00:02.273					
2043.017268	Occlusion droite	null	0:12:58.046					
2043.088463	Soleil	Oui	0:00:09.735					
2043.336813	Degré de certitude	+1 Plutôt sûr	0:00:07.636					
2043.336813	Intensité	-1 Peu	0:00:07.636					
2043.336813	Emotion	Joie	0:00:07.636					
2043.336813	Occlusion frontale	Oui	0:00:02.711					
2043.336813	Valence	Positive	0:00:07.636					
2044.465954	Parler	null	0:00:15.760					
2046.048209	Occlusion frontale	null	0:00:04.924					
2050.972584	Intensité	+1 Beaucoup	0:00:06.001					
2050.972584	Degré de certitude	+1 Plutôt sûr	0:00:06.001					
2050.972584	Emotion	Joie	0:00:06.001					
2050.972584	Occlusion frontale	Oui	0:00:06.001					
2050.972584	Valence	Positive	0:00:06.001					
2052.823658	Soleil	null	0:11:58.614					
2056.973215	Degré de certitude	+1 Plutôt sûr	0:00:10.902					
2056.973215	Intensité	-1 Peu	0:00:10.902					
2056.973215	Emotion	Joie	0:00:10.902					
2056.973215	Occlusion frontale	null	0:10:28.458					
2056.973215	Valence	Positive	0:00:10.902					
2060.225956	Parler	Oui	0:00:05.798					
2066.023743	Parler	null	0:03:22.331					
2067.875176	Intensité	null	0:03:20.519					
2067.875176	Valence	null	0:03:20.519					
2067.875176	Emotion	null	0:03:20.519					
2067.875176	Degré de certitude	null	0:03:20.519					
2068.304536	Commentaire	Fin induction 4						
2267.875055	Commentaire	Debut emotion 2						
2268.354648	Parler	Oui	0:00:01.769					
2268.393963	Intensité	+1 Beaucoup	0:00:12.874					
2268.393963	Degré de certitude	+1 Plutôt sûr	0:00:12.874					
2268.393963	Emotion	Joie	0:00:12.874					
2268.393963	Valence	Positive	0:00:12.874					
2270.1239	Parler	null	0:06:51.573					
2281.267968	Degré de certitude	+1 Plutôt sûr	0:00:02.336					
2281.267968	Intensité	-1 Peu	0:00:02.336					
2281.267968	Emotion	Joie	0:00:02.336					
2281.267968	Valence	Positive	0:00:02.336					
2283.604268	Intensité	null	0:06:37.998					
2283.604268	Emotion	null	0:06:37.998					
2283.604268	Valence	null	0:06:37.998					
2283.604268	Degré de certitude	null	0:06:37.998					
2284.181232	Commentaire	Fin emotion 2						
2681.539577	Commentaire	Debut induction 5						
2681.602422	Intensité	+1 Beaucoup	0:02:20.548					
2681.602422	Degré de certitude	0 Moyennement sûr	0:02:20.548					
2681.602422	Emotion	Colère	0:02:20.548					
2681.602422	Valence	Négative	0:02:20.548					
2681.69673	Parler	Oui	0:00:04.065					
2685.431054	Occlusion frontale	Oui	0:00:23.586					
2685.762017	Parler	null	0:00:12.943					
2698.704664	Parler	Oui	0:00:05.006					
2703.710606	Parler	null	0:00:53.938					
2709.01712	Occlusion frontale	null	0:01:23.681					
2757.648801	Parler	Oui	0:00:03.240					
2760.888931	Parler	null	0:00:22.178					
2771.437516	Soleil	Oui	0:00:11.965					
2783.067253	Parler	Oui	0:00:11.841					
2783.402755	Soleil	null	0:01:35.943					
2792.698584	Occlusion frontale	Oui	0:00:09.576					
2794.907934	Parler	null	0:00:20.553					
2802.274162	Occlusion frontale	null	0:00:05.603					
2807.876677	Occlusion frontale	Oui	0:00:02.330					
2810.206429	Occlusion frontale	null	0:00:08.564					
2815.460874	Parler	Oui	0:00:01.713					
2817.17424	Parler	null	0:00:03.781					
2818.769991	Occlusion frontale	Oui	0:00:09.295					
2820.955133	Parler	Oui	0:00:03.850					
2821.063296	Occlusion droite	Oui	0:00:00.701					
2821.763997	Occlusion droite	null	0:00:03.842					
2822.150563	Degré de certitude	-1 Peu sûr	0:00:14.523					
2822.150563	Intensité	-2 Très peu	0:00:14.523					
2822.150563	Emotion	Joie	0:00:14.523					
2822.150563	Valence	Positive	0:00:14.523					
2824.805287	Parler	null	0:00:47.946					
2825.606222	Occlusion droite	Oui	0:00:01.335					
2826.94089	Occlusion droite	null	0:03:16.912					
2828.06542	Occlusion frontale	null	0:00:11.683					
2836.673337	Intensité	+1 Beaucoup	0:00:42.533					
2836.673337	Degré de certitude	0 Moyennement sûr	0:00:42.533					
2836.673337	Emotion	Colère	0:00:42.533					
2836.673337	Valence	Négative	0:00:42.533					
2839.748137	Occlusion frontale	Oui	0:00:04.004					
2843.752613	Occlusion frontale	null	0:00:05.277					
2849.030088	Occlusion frontale	Oui	0:00:03.554					
2852.584173	Occlusion frontale	null	0:00:12.691					
2865.275209	Occlusion frontale	Oui	0:00:05.952					
2871.226941	Occlusion frontale	null	0:00:02.453					
2872.751222	Parler	Oui	0:00:09.884					
2873.680117	Occlusion frontale	Oui	0:00:04.333					
2878.012719	Occlusion frontale	null	0:00:01.194					
2879.206368	Degré de certitude	-1 Peu sûr	0:00:03.429					
2879.206368	Intensité	-2 Très peu	0:00:03.429					
2879.206368	Emotion	Joie	0:00:03.429					
2879.206368	Occlusion frontale	Oui	0:00:03.429					
2879.206368	Valence	Positive	0:00:03.429					
2879.346035	Soleil	Oui	0:00:03.290					
2882.635581	Degré de certitude	null	0:02:13.357					
2882.635581	Valence	null	0:02:13.357					
2882.635581	Parler	null	0:02:13.344					
2882.635581	Occlusion frontale	null	0:02:21.218					
2882.635581	Intensité	null	0:02:13.357					
2882.635581	Emotion	null	0:02:13.357					
2882.635581	Soleil	null	0:02:39.485					
2882.956924	Commentaire	Fin induction 5						
3015.973331	Commentaire	Debut induction 6						
3015.979544	Parler	Oui	0:00:08.120					
3015.992098	Degré de certitude	+1 Plutôt sûr	0:00:05.651					
3015.992098	Intensité	0 Neutre	0:00:05.651					
3015.992098	Emotion	Neutre	0:00:05.651					
3015.992098	Valence	Neutre	0:00:05.651					
3021.642637	Degré de certitude	0 Moyennement sûr	0:00:02.210					
3021.642637	Intensité	-1 Peu	0:00:02.210					
3021.642637	Valence	Négative	0:00:02.210					
3021.642637	Emotion	Surprise	0:00:02.210					
3023.853131	Degré de certitude	+1 Plutôt sûr	0:00:01.216					
3023.853131	Intensité	-1 Peu	0:00:01.216					
3023.853131	Emotion	Joie	0:00:01.216					
3023.853131	Occlusion droite	Oui	0:00:01.216					
3023.853131	Occlusion frontale	Oui	0:00:01.216					
3023.853131	Valence	Positive	0:00:01.216					
3024.099869	Parler	null	0:00:04.157					
3025.069619	Intensité	+1 Beaucoup	0:00:16.834					
3025.069619	Degré de certitude	+1 Plutôt sûr	0:00:16.834					
3025.069619	Emotion	Joie	0:00:16.834					
3025.069619	Occlusion frontale	null	0:00:17.051					
3025.069619	Occlusion droite	null	0:00:17.051					
3025.069619	Valence	Positive	0:00:16.834					
3028.257135	Parler	Oui	0:00:09.974					
3038.230664	Parler	null	0:00:03.890					
3041.903605	Valence	null	0:00:00.217					
3041.903605	Intensité	null	0:00:00.217					
3041.903605	Emotion	null	0:00:00.217					
3041.903605	Degré de certitude	null	0:00:00.217					
3042.120933	Commentaire	Fin induction 6						
