Classe	Observable	Code	Durée	Retard	Couleur			
Valence					Color [A=255	 R=101	 G=133	 B=207]
	Positive		0	0	Color [A=255	 R=156	 G=176	 B=132]
	Neutre		0	0	Color [A=255	 R=107	 G=177	 B=201]
	Négative		0	0	Color [A=255	 R=206	 G=185	 B=102]
Emotion					Color [A=255	 R=206	 G=146	 B=30]
	Joie		0	0	Color [A=255	 R=102	 G=168	 B=9]
	Tristesse		0	0	Color [A=255	 R=200	 G=76	 B=27]
	Colère		0	0	Color [A=255	 R=200	 G=173	 B=58]
	Peur		0	0	Color [A=255	 R=119	 G=199	 B=70]
	Surprise		0	0	Color [A=255	 R=152	 G=58	 B=23]
	Dégoût		0	0	Color [A=255	 R=0	 G=136	 B=0]
	Neutre		0	0	Color [A=255	 R=158	 G=161	 B=0]
Intensité					Color [A=255	 R=184	 G=61	 B=104]
	-2 Très peu		0	0	Color [A=255	 R=172	 G=102	 B=187]
	-1 Peu		0	0	Color [A=255	 R=222	 G=108	 B=54]
	0 Neutre		0	0	Color [A=255	 R=249	 G=182	 B=57]
	+1 Beaucoup		0	0	Color [A=255	 R=207	 G=109	 B=164]
	+2 Extrêmement		0	0	Color [A=255	 R=250	 G=141	 B=61]
Degré de certitude					Color [A=255	 R=101	 G=133	 B=207]
	-2 Pas du tout sûr		0	0	Color [A=255	 R=156	 G=176	 B=132]
	-1 Peu sûr		0	0	Color [A=255	 R=107	 G=177	 B=201]
	0 Moyennement sûr		0	0	Color [A=255	 R=206	 G=185	 B=102]
	+1 Plutôt sûr		0	0	Color [A=255	 R=126	 G=107	 B=201]
	+2 Totalement sûr		0	0	Color [A=255	 R=163	 G=121	 B=187]
Soleil					Color [A=255	 R=206	 G=146	 B=30]
	Oui		0	0	Color [A=255	 R=102	 G=168	 B=9]
	Non		0	0	Color [A=255	 R=200	 G=76	 B=27]
Fatigue					Color [A=255	 R=184	 G=61	 B=104]
	Oui		0	0	Color [A=255	 R=172	 G=102	 B=187]
	Non		0	0	Color [A=255	 R=222	 G=108	 B=54]
Parler					Color [A=255	 R=101	 G=133	 B=207]
	Oui		0	0	Color [A=255	 R=156	 G=176	 B=132]
	Non		0	0	Color [A=255	 R=107	 G=177	 B=201]
Occlusion frontale					Color [A=255	 R=206	 G=146	 B=30]
	Oui		0	0	Color [A=255	 R=102	 G=168	 B=9]
	Non		0	0	Color [A=255	 R=200	 G=76	 B=27]
Occlusion droite					Color [A=255	 R=184	 G=61	 B=104]
	Oui		0	0	Color [A=255	 R=172	 G=102	 B=187]
	Non		0	0	Color [A=255	 R=222	 G=108	 B=54]
								
Durée : Interne aux classes								
								
Date	Classe	Observable	Durée					
								
Start Time	06.01.2017 13:57							
								
0	Commentaire	Debut recording						
220.1096373	Commentaire	Debut neutre						
222.5449782	Degré de certitude	+2 Totalement sûr	0:00:14.402					
222.5449782	Intensité	0 Neutre	0:00:14.402					
222.5449782	Emotion	Neutre	0:00:14.402					
222.5449782	Valence	Neutre	0:00:14.402					
236.946961	Degré de certitude	null	0:03:55.139					
236.946961	Intensité	null	0:03:55.139					
236.946961	Valence	null	0:03:55.139					
236.946961	Emotion	null	0:03:55.139					
236.946961	Commentaire	Fin neutre						
464.8432312	Commentaire	Debut emotion 1						
472.0855893	Degré de certitude	0 Moyennement sûr	0:00:26.219					
472.0855893	Intensité	0 Neutre	0:00:26.219					
472.0855893	Valence	Neutre	0:00:26.219					
472.0855893	Emotion	Neutre	0:00:26.219					
498.3044747	Emotion	null	0:06:01.127					
498.3044747	Degré de certitude	null	0:06:01.127					
498.3044747	Valence	null	0:06:01.127					
498.3044747	Intensité	null	0:06:01.127					
498.4211326	Commentaire	Fin emotion 1						
859.4277888	Commentaire	Debut induction 1						
859.4318712	Degré de certitude	+2 Totalement sûr	0:00:02.140					
859.4318712	Intensité	0 Neutre	0:00:02.140					
859.4318712	Valence	Neutre	0:00:02.140					
859.4318712	Emotion	Neutre	0:00:02.140					
859.4318712	Parler	Oui	0:00:01.643					
861.0354726	Occlusion droite	Oui	0:00:00.766					
861.0750797	Parler	null	0:00:00.683					
861.2030385	Occlusion frontale	Oui	0:00:00.302					
861.5046572	Occlusion frontale	null	0:08:32.701					
861.5720355	Intensité	+1 Beaucoup	0:00:13.731					
861.5720355	Degré de certitude	+2 Totalement sûr	0:00:13.731					
861.5720355	Emotion	Dégoût	0:00:13.731					
861.5720355	Valence	Négative	0:00:13.731					
861.7578696	Parler	Oui	0:00:00.493					
861.80162	Occlusion droite	null	0:30:32.757					
862.2506518	Parler	null	0:00:01.073					
863.3240964	Parler	Oui	0:00:03.771					
867.0954107	Parler	null	0:00:03.528					
870.6235193	Parler	Oui	0:00:02.079					
872.7023236	Parler	null	0:00:02.237					
874.9390699	Parler	Oui	0:00:00.812					
875.3034332	Degré de certitude	0 Moyennement sûr	0:00:01.039					
875.3034332	Intensité	0 Neutre	0:00:01.039					
875.3034332	Emotion	Neutre	0:00:01.039					
875.3034332	Valence	Neutre	0:00:01.039					
875.7510699	Parler	null	0:01:32.840					
876.3424692	Degré de certitude	null	0:01:32.249					
876.3424692	Emotion	null	0:01:32.249					
876.3424692	Intensité	null	0:01:32.249					
876.3424692	Valence	null	0:01:32.249					
876.6262257	Commentaire	Fin induction 1						
968.5799992	Commentaire	Debut emotion 2						
968.5910181	Intensité	+1 Beaucoup	0:00:20.250					
968.5910181	Degré de certitude	+1 Plutôt sûr	0:00:20.250					
968.5910181	Emotion	Joie	0:00:20.250					
968.5910181	Parler	Oui	0:00:01.489					
968.5910181	Valence	Positive	0:00:20.250					
970.0795643	Parler	null	0:00:01.776					
971.8554794	Parler	Oui	0:00:09.085					
980.940933	Parler	null	0:01:22.018					
988.8405782	Intensité	null	0:01:14.118					
988.8405782	Degré de certitude	null	0:01:14.118					
988.8405782	Emotion	null	0:01:14.118					
988.8405782	Valence	null	0:01:14.118					
989.0274585	Commentaire	Fin emotion 2						
1062.952301	Commentaire	Debut emotion 3						
1062.959074	Intensité	+1 Beaucoup	0:00:09.958					
1062.959074	Degré de certitude	+1 Plutôt sûr	0:00:09.958					
1062.959074	Emotion	Joie	0:00:09.958					
1062.959074	Parler	Oui	0:00:02.600					
1062.959074	Valence	Positive	0:00:09.958					
1065.559269	Parler	null	0:00:01.527					
1067.086453	Parler	Oui	0:00:01.463					
1068.549913	Parler	null	0:00:02.220					
1070.769887	Parler	Oui	0:00:02.147					
1072.916776	Intensité	null	0:00:51.376					
1072.916776	Parler	null	0:00:51.376					
1072.916776	Valence	null	0:00:51.376					
1072.916776	Degré de certitude	null	0:00:51.376					
1072.916776	Emotion	null	0:00:51.376					
1073.045057	Commentaire	Fin emotion 3						
1124.286289	Commentaire	Debut induction 2						
1124.293207	Degré de certitude	0 Moyennement sûr	0:00:14.194					
1124.293207	Intensité	0 Neutre	0:00:14.194					
1124.293207	Valence	Neutre	0:00:14.194					
1124.293207	Emotion	Neutre	0:00:14.194					
1124.293207	Parler	Oui	0:00:01.030					
1125.322796	Parler	null	0:00:02.001					
1127.323401	Parler	Oui	0:00:04.869					
1132.192842	Parler	null	0:00:03.933					
1136.125646	Parler	Oui	0:00:02.362					
1138.487224	Parler	null	0:03:42.610					
1138.487224	Intensité	null	0:03:42.610					
1138.487224	Degré de certitude	null	0:03:42.610					
1138.487224	Emotion	null	0:03:42.610					
1138.487224	Valence	null	0:03:42.610					
1138.716548	Commentaire	Fin induction 2						
1361.087209	Commentaire	Debut induction 3						
1361.097445	Degré de certitude	indef	0:05:12.873					
1361.097445	Intensité	indef	0:05:12.873					
1361.097445	Valence	indef	0:05:12.873					
1361.097445	Emotion	indef	0:05:12.873					
1361.097445	Parler	Oui	0:00:02.357					
1363.45474	Parler	null	0:00:19.132					
1374.205529	Occlusion frontale	Oui	0:00:02.601					
1376.806857	Occlusion frontale	null	0:00:09.165					
1382.586415	Parler	Oui	0:00:09.710					
1385.971766	Occlusion frontale	Oui	0:00:02.947					
1388.918354	Occlusion frontale	null	0:00:01.354					
1390.27195	Occlusion frontale	Oui	0:00:13.260					
1392.296803	Parler	null	0:00:05.376					
1397.673042	Parler	Oui	0:00:09.603					
1403.532177	Occlusion frontale	null	0:01:07.251					
1407.27566	Parler	null	0:00:02.420					
1409.695621	Parler	Oui	0:00:08.051					
1417.746709	Parler	null	0:00:29.949					
1447.695558	Parler	Oui	0:00:24.015					
1470.78284	Occlusion frontale	Oui	0:00:01.687					
1471.711029	Parler	null	0:00:02.707					
1472.469969	Occlusion frontale	null	0:01:20.235					
1474.417807	Parler	Oui	0:00:01.622					
1476.03997	Parler	null	0:00:04.157					
1480.197274	Parler	Oui	0:00:08.305					
1488.502082	Parler	null	0:00:02.059					
1490.560725	Parler	Oui	0:01:03.070					
1552.705018	Occlusion frontale	Oui	0:00:07.260					
1553.630977	Parler	null	0:00:12.500					
1559.964701	Occlusion frontale	null	0:11:17.310					
1566.131222	Parler	Oui	0:00:16.951					
1583.08208	Parler	null	0:00:12.849					
1595.931235	Parler	Oui	0:00:03.382					
1599.312854	Parler	null	0:00:07.997					
1607.309748	Parler	Oui	0:00:03.743					
1611.05234	Parler	null	0:00:01.771					
1612.822968	Parler	Oui	0:00:02.027					
1614.850171	Parler	null	0:00:15.646					
1630.49615	Parler	Oui	0:00:03.767					
1634.263104	Parler	null	0:00:08.256					
1642.518729	Parler	Oui	0:00:05.665					
1648.183841	Parler	null	0:00:06.357					
1654.541308	Parler	Oui	0:00:02.054					
1656.595751	Parler	null	0:00:05.626					
1662.221706	Parler	Oui	0:00:07.324					
1669.54549	Parler	null	0:05:46.488					
1673.970869	Valence	null	0:05:35.502					
1673.970869	Intensité	null	0:05:35.502					
1673.970869	Emotion	null	0:05:35.502					
1673.970869	Degré de certitude	null	0:05:35.502					
1674.222234	Commentaire	Fin induction 3						
2009.465144	Commentaire	Debut induction 4						
2009.473362	Degré de certitude	0 Moyennement sûr	0:00:06.503					
2009.473362	Intensité	0 Neutre	0:00:06.503					
2009.473362	Valence	Neutre	0:00:06.503					
2009.473362	Emotion	Neutre	0:00:06.503					
2015.97612	Degré de certitude	0 Moyennement sûr	0:00:10.650					
2015.97612	Intensité	-2 Très peu	0:00:10.650					
2015.97612	Emotion	Joie	0:00:10.650					
2015.97612	Valence	Positive	0:00:10.650					
2016.033868	Parler	Oui	0:00:05.222					
2021.25635	Parler	null	0:00:06.938					
2026.625979	Degré de certitude	0 Moyennement sûr	0:00:12.781					
2026.625979	Intensité	-1 Peu	0:00:12.781					
2026.625979	Emotion	Joie	0:00:12.781					
2026.625979	Valence	Positive	0:00:12.781					
2028.193983	Parler	Oui	0:00:03.245					
2031.439112	Parler	null	0:00:06.766					
2038.205333	Parler	Oui	0:00:01.220					
2039.406541	Degré de certitude	0 Moyennement sûr	0:00:06.307					
2039.406541	Intensité	-2 Très peu	0:00:06.307					
2039.406541	Emotion	Joie	0:00:06.307					
2039.406541	Valence	Positive	0:00:06.307					
2039.425382	Parler	null	0:00:01.348					
2040.773411	Parler	Oui	0:00:12.632					
2045.713881	Degré de certitude	0 Moyennement sûr	0:00:18.807					
2045.713881	Intensité	-1 Peu	0:00:18.807					
2045.713881	Emotion	Joie	0:00:18.807					
2045.713881	Valence	Positive	0:00:18.807					
2053.405569	Parler	null	0:00:21.332					
2064.520488	Degré de certitude	0 Moyennement sûr	0:00:07.437					
2064.520488	Intensité	0 Neutre	0:00:07.437					
2064.520488	Emotion	Neutre	0:00:07.437					
2064.520488	Valence	Neutre	0:00:07.437					
2071.95752	Degré de certitude	0 Moyennement sûr	0:00:19.947					
2071.95752	Intensité	-2 Très peu	0:00:19.947					
2071.95752	Emotion	Joie	0:00:19.947					
2071.95752	Valence	Positive	0:00:19.947					
2074.737867	Parler	Oui	0:00:17.436					
2091.905013	Degré de certitude	0 Moyennement sûr	0:00:10.695					
2091.905013	Intensité	0 Neutre	0:00:10.695					
2091.905013	Emotion	Neutre	0:00:10.695					
2091.905013	Valence	Neutre	0:00:10.695					
2092.173565	Parler	null	0:00:19.464					
2102.599945	Degré de certitude	0 Moyennement sûr	0:00:12.443					
2102.599945	Intensité	-1 Peu	0:00:12.443					
2102.599945	Emotion	Joie	0:00:12.443					
2102.599945	Valence	Positive	0:00:12.443					
2111.637524	Parler	Oui	0:00:16.353					
2115.043053	Degré de certitude	0 Moyennement sûr	0:00:32.677					
2115.043053	Intensité	0 Neutre	0:00:32.677					
2115.043053	Emotion	Neutre	0:00:32.677					
2115.043053	Valence	Neutre	0:00:32.677					
2127.990781	Parler	null	0:00:20.966					
2147.719625	Degré de certitude	0 Moyennement sûr	0:00:07.166					
2147.719625	Intensité	-1 Peu	0:00:07.166					
2147.719625	Emotion	Joie	0:00:07.166					
2147.719625	Valence	Positive	0:00:07.166					
2148.956495	Parler	Oui	0:00:05.813					
2154.769703	Parler	null	0:00:10.121					
2154.88534	Degré de certitude	0 Moyennement sûr	0:00:15.368					
2154.88534	Intensité	-2 Très peu	0:00:15.368					
2154.88534	Emotion	Joie	0:00:15.368					
2154.88534	Valence	Positive	0:00:15.368					
2164.890437	Parler	Oui	0:00:04.450					
2169.340615	Parler	null	0:01:07.934					
2170.253658	Degré de certitude	0 Moyennement sûr	0:00:02.184					
2170.253658	Intensité	0 Neutre	0:00:02.184					
2170.253658	Emotion	Neutre	0:00:02.184					
2170.253658	Valence	Neutre	0:00:02.184					
2172.438094	Intensité	null	0:01:04.837					
2172.438094	Degré de certitude	null	0:01:04.837					
2172.438094	Valence	null	0:01:04.837					
2172.438094	Emotion	null	0:01:04.837					
2172.929182	Commentaire	Fin induction 4						
2235.099302	Commentaire	Debut emotion 4						
2237.274759	Intensité	0 Neutre	0:00:18.943					
2237.274759	Degré de certitude	-1 Peu sûr	0:00:18.943					
2237.274759	Emotion	Neutre	0:00:18.943					
2237.274759	Valence	Neutre	0:00:18.943					
2237.274759	Parler	Oui	0:00:07.548					
2237.274759	Occlusion frontale	Oui	0:00:18.935					
2244.822416	Parler	null	0:00:03.774					
2248.596245	Parler	Oui	0:00:05.800					
2254.395857	Parler	null	0:00:04.264					
2256.209635	Occlusion frontale	null	0:03:56.964					
2256.21755	Intensité	-1 Peu	0:00:02.148					
2256.21755	Degré de certitude	-1 Peu sûr	0:00:02.148					
2256.21755	Emotion	Colère	0:00:02.148					
2256.21755	Valence	Négative	0:00:02.148					
2258.365689	Intensité	0 Neutre	0:00:06.584					
2258.365689	Degré de certitude	-1 Peu sûr	0:00:06.584					
2258.365689	Emotion	Neutre	0:00:06.584					
2258.365689	Valence	Neutre	0:00:06.584					
2258.659787	Parler	Oui	0:00:06.290					
2264.949502	Valence	null	0:03:41.337					
2264.949502	Parler	null	0:03:41.337					
2264.949502	Degré de certitude	null	0:03:41.337					
2264.949502	Emotion	null	0:03:41.337					
2264.949502	Intensité	null	0:03:41.337					
2265.28993	Commentaire	Fin emotion 4						
2486.271716	Commentaire	Debut induction 5						
2486.286443	Degré de certitude	0 Moyennement sûr	0:00:27.531					
2486.286443	Intensité	0 Neutre	0:00:27.531					
2486.286443	Emotion	Neutre	0:00:27.531					
2486.286443	Valence	Neutre	0:00:27.531					
2486.286443	Parler	Oui	0:00:05.498					
2491.784023	Parler	null	0:00:12.632					
2493.173258	Occlusion frontale	Oui	0:00:03.434					
2496.607032	Occlusion frontale	null	0:00:20.219					
2504.415644	Parler	Oui	0:00:02.073					
2506.488619	Parler	null	0:00:02.935					
2509.423819	Parler	Oui	0:00:03.350					
2512.773333	Parler	null	0:00:13.447					
2513.81697	Degré de certitude	0 Moyennement sûr	0:00:02.025					
2513.81697	Intensité	-1 Peu	0:00:02.025					
2513.81697	Valence	Neutre	0:00:02.025					
2513.81697	Emotion	Surprise	0:00:02.025					
2515.842051	Degré de certitude	0 Moyennement sûr	0:00:07.170					
2515.842051	Intensité	0 Neutre	0:00:07.170					
2515.842051	Valence	Neutre	0:00:07.170					
2515.842051	Emotion	Neutre	0:00:07.170					
2516.826194	Occlusion frontale	Oui	0:00:15.278					
2523.011777	Degré de certitude	0 Moyennement sûr	0:00:09.092					
2523.011777	Intensité	-2 Très peu	0:00:09.092					
2523.011777	Emotion	Joie	0:00:09.092					
2523.011777	Valence	Positive	0:00:09.092					
2526.219986	Parler	Oui	0:00:05.680					
2531.900214	Parler	null	0:00:26.188					
2532.104014	Degré de certitude	0 Moyennement sûr	0:00:31.232					
2532.104014	Intensité	0 Neutre	0:00:31.232					
2532.104014	Valence	Neutre	0:00:31.232					
2532.104014	Emotion	Neutre	0:00:31.232					
2532.104014	Occlusion frontale	null	0:02:49.443					
2558.087871	Parler	Oui	0:00:07.453					
2563.336184	Valence	null	0:02:10.734					
2563.336184	Degré de certitude	null	0:02:10.734					
2563.336184	Intensité	null	0:02:10.734					
2563.336184	Emotion	null	0:02:10.734					
2565.540442	Parler	null	0:02:08.530					
2567.597468	Commentaire	Fin induction 5						
2694.064547	Commentaire	Debut induction 6						
2694.069994	Intensité	-1 Peu	0:00:06.667					
2694.069994	Degré de certitude	-1 Peu sûr	0:00:06.667					
2694.069994	Valence	Neutre	0:00:06.667					
2694.069994	Parler	Oui	0:00:00.651					
2694.069994	Emotion	Surprise	0:00:06.667					
2694.558574	Occlusion droite	Oui	0:00:00.214					
2694.720964	Parler	null	0:00:06.547					
2694.772111	Occlusion droite	null	0:00:00.201					
2694.97319	Occlusion droite	Oui	0:00:00.168					
2695.140756	Occlusion droite	null	0:00:00.302					
2695.442375	Occlusion droite	Oui	0:00:00.570					
2696.012099	Occlusion droite	null	0:00:00.302					
2696.313718	Occlusion droite	Oui	0:00:00.570					
2696.883442	Occlusion droite	null	0:00:00.268					
2697.151547	Occlusion droite	Oui	0:00:00.603					
2697.754785	Occlusion droite	null	0:00:00.235					
2697.989377	Occlusion droite	Oui	0:00:00.637					
2698.626128	Occlusion droite	null	0:00:00.201					
2698.827207	Occlusion droite	Oui	0:00:00.670					
2699.49747	Occlusion droite	null	0:00:00.150					
2699.647528	Occlusion droite	Oui	0:00:00.688					
2700.3353	Occlusion droite	null	0:00:00.838					
2700.736515	Intensité	-1 Peu	0:00:16.382					
2700.736515	Degré de certitude	-1 Peu sûr	0:00:16.382					
2700.736515	Emotion	Joie	0:00:16.382					
2700.736515	Valence	Positive	0:00:16.382					
2701.17313	Occlusion droite	Oui	0:00:04.323					
2701.267878	Parler	Oui	0:00:04.050					
2701.546545	Occlusion frontale	Oui	0:00:00.235					
2701.781137	Occlusion frontale	null	0:00:22.345					
2705.31804	Parler	null	0:00:18.808					
2705.496331	Occlusion droite	null	0:00:08.360					
2713.85664	Occlusion droite	Oui	0:00:01.794					
2715.650294	Occlusion droite	null	0:00:08.476					
2717.118727	Intensité	+1 Beaucoup	0:00:06.239					
2717.118727	Degré de certitude	+1 Plutôt sûr	0:00:06.239					
2717.118727	Emotion	Joie	0:00:06.239					
2717.118727	Valence	Positive	0:00:06.239					
2723.357766	Emotion	null	0:00:00.768					
2723.357766	Intensité	null	0:00:00.768					
2723.357766	Degré de certitude	null	0:00:00.768					
2723.357766	Valence	null	0:00:00.768					
2724.12612	Commentaire	Fin induction 6						
