Classe	Observable	Code	Durée	Retard	Couleur			
Valence					Color [A=255	 R=206	 G=146	 B=30]
	Positive		0	0	Color [A=255	 R=102	 G=168	 B=9]
	Neutre		0	0	Color [A=255	 R=200	 G=173	 B=58]
	Négative		0	0	Color [A=255	 R=200	 G=76	 B=27]
Emotion					Color [A=255	 R=101	 G=133	 B=207]
	Joie		0	0	Color [A=255	 R=156	 G=176	 B=132]
	Tristesse		0	0	Color [A=255	 R=107	 G=177	 B=201]
	Colère		0	0	Color [A=255	 R=206	 G=185	 B=102]
	Peur		0	0	Color [A=255	 R=126	 G=107	 B=201]
	Surprise		0	0	Color [A=255	 R=163	 G=121	 B=187]
	Dégoût		0	0	Color [A=255	 R=101	 G=133	 B=207]
	Neutre		0	0	Color [A=255	 R=156	 G=176	 B=132]
Intensité					Color [A=255	 R=184	 G=61	 B=104]
	-2 Très peu		0	0	Color [A=255	 R=172	 G=102	 B=187]
	-1 Peu		0	0	Color [A=255	 R=222	 G=108	 B=54]
	0 Neutre		0	0	Color [A=255	 R=249	 G=182	 B=57]
	+1 Beaucoup		0	0	Color [A=255	 R=207	 G=109	 B=164]
	+2 Extrêmement		0	0	Color [A=255	 R=250	 G=141	 B=61]
Degré de certitude					Color [A=255	 R=101	 G=133	 B=207]
	-2 Pas du tout sûr		0	0	Color [A=255	 R=156	 G=176	 B=132]
	-1 Peu sûr		0	0	Color [A=255	 R=107	 G=177	 B=201]
	0 Moyennement sûr		0	0	Color [A=255	 R=163	 G=121	 B=187]
	+1 Plutôt sûr		0	0	Color [A=255	 R=206	 G=185	 B=102]
	+2 Totalement sûr		0	0	Color [A=255	 R=126	 G=107	 B=201]
Soleil					Color [A=255	 R=206	 G=146	 B=30]
	Oui		0	0	Color [A=255	 R=102	 G=168	 B=9]
	Non		0	0	Color [A=255	 R=200	 G=76	 B=27]
Fatigue					Color [A=255	 R=184	 G=61	 B=104]
	Oui		0	0	Color [A=255	 R=172	 G=102	 B=187]
	Non		0	0	Color [A=255	 R=222	 G=108	 B=54]
Parler					Color [A=255	 R=101	 G=133	 B=207]
	Oui		0	0	Color [A=255	 R=156	 G=176	 B=132]
	Non		0	0	Color [A=255	 R=107	 G=177	 B=201]
Occlusion frontale					Color [A=255	 R=206	 G=146	 B=30]
	Oui		0	0	Color [A=255	 R=102	 G=168	 B=9]
	Non		0	0	Color [A=255	 R=200	 G=76	 B=27]
Occlusion droite					Color [A=255	 R=184	 G=61	 B=104]
	Oui		0	0	Color [A=255	 R=172	 G=102	 B=187]
	Non		0	0	Color [A=255	 R=222	 G=108	 B=54]
								
Durée : Interne aux classes								
								
Date	Classe	Observable	Durée					
								
Start Time	04.01.2017 11:55							
								
0	Commentaire	Debut recording						
202.1688088	Commentaire	Debut neutre						
202.778821	Degré de certitude	+2 Totalement sûr	0:00:14.805					
202.778821	Intensité	0 Neutre	0:00:14.805					
202.778821	Emotion	Neutre	0:00:14.805					
202.778821	Valence	Neutre	0:00:14.805					
217.5841171	Commentaire	Fin neutre						
217.5841171	Emotion	null	0:08:28.636					
217.5841171	Degré de certitude	null	0:08:28.636					
217.5841171	Intensité	null	0:08:28.636					
217.5841171	Valence	null	0:08:28.636					
724.1270647	Commentaire	Debut induction 1						
726.2204253	Degré de certitude	-2 Pas du tout sûr	0:00:06.199					
726.2204253	Intensité	-2 Très peu	0:00:06.199					
726.2204253	Emotion	Dégoût	0:00:06.199					
726.2204253	Valence	Négative	0:00:06.199					
726.8326127	Parler	Oui	0:00:02.031					
728.8636127	Parler	null	0:00:00.669					
729.5330767	Parler	Oui	0:00:02.886					
732.4190362	Parler	null	0:01:00.737					
732.4190362	Emotion	null	0:00:58.936					
732.4190362	Degré de certitude	null	0:00:58.936					
732.4190362	Valence	null	0:00:58.936					
732.4190362	Intensité	null	0:00:58.936					
733.4303698	Commentaire	Fin induction 1						
790.8007473	Commentaire	Debut induction 1 round 2						
791.3554191	Degré de certitude	-2 Pas du tout sûr	0:00:06.693					
791.3554191	Intensité	-2 Très peu	0:00:06.693					
791.3554191	Emotion	Dégoût	0:00:06.693					
791.3554191	Valence	Négative	0:00:06.693					
793.155902	Parler	Oui	0:00:03.650					
796.806048	Parler	null	0:01:09.961					
798.0481868	Emotion	null	0:01:06.307					
798.0481868	Degré de certitude	null	0:01:06.307					
798.0481868	Valence	null	0:01:06.307					
798.0481868	Intensité	null	0:01:06.307					
798.8636116	Commentaire	Fin induction 1 round 2						
864.3378768	Commentaire	Debut induction 2						
864.3551399	Degré de certitude	+1 Plutôt sûr	0:00:13.259					
864.3551399	Intensité	0 Neutre	0:00:13.259					
864.3551399	Emotion	Neutre	0:00:13.259					
864.3551399	Valence	Neutre	0:00:13.259					
866.7672898	Parler	Oui	0:00:04.588					
871.3552032	Parler	null	0:05:19.226					
877.6145863	Valence	null	0:04:46.540					
877.6145863	Intensité	null	0:04:46.540					
877.6145863	Degré de certitude	null	0:04:46.540					
877.6145863	Emotion	null	0:04:46.540					
877.6726132	Commentaire	Fin induction 2						
1163.208188	Commentaire	Debut induction 3						
1164.154569	Degré de certitude	+1 Plutôt sûr	0:00:27.246					
1164.154569	Intensité	0 Neutre	0:00:27.246					
1164.154569	Valence	Neutre	0:00:27.246					
1164.154569	Emotion	Neutre	0:00:27.246					
1174.162646	Occlusion frontale	Oui	0:00:03.382					
1177.54465	Occlusion frontale	null	0:00:08.803					
1186.347205	Occlusion frontale	Oui	0:00:05.054					
1189.844829	Commentaire	Commentaires						
1190.580935	Parler	Oui	0:00:03.850					
1191.400761	Degré de certitude	+1 Plutôt sûr	0:00:01.202					
1191.400761	Intensité	-1 Peu	0:00:01.202					
1191.400761	Emotion	Colère	0:00:01.202					
1191.400761	Valence	Négative	0:00:01.202					
1191.400761	Occlusion frontale	null	0:00:01.202					
1192.603053	Degré de certitude	+1 Plutôt sûr	0:03:33.700					
1192.603053	Intensité	0 Neutre	0:03:33.700					
1192.603053	Emotion	Neutre	0:03:33.700					
1192.603053	Valence	Neutre	0:03:33.700					
1192.603053	Occlusion frontale	Oui	0:00:15.732					
1194.431089	Parler	null	0:00:09.438					
1199.29671	Soleil	Oui	0:00:25.121					
1203.868846	Parler	Oui	0:00:02.030					
1205.898887	Parler	null	0:00:47.191					
1208.334765	Occlusion frontale	null	0:01:39.748					
1224.417715	Soleil	null	0:06:31.865					
1253.089529	Parler	Oui	0:00:04.255					
1257.344614	Parler	null	0:00:06.462					
1263.806936	Parler	Oui	0:00:06.490					
1270.297065	Parler	null	0:00:02.257					
1272.554238	Parler	Oui	0:00:11.130					
1283.68472	Parler	null	0:00:04.137					
1287.821866	Parler	Oui	0:00:10.965					
1298.787085	Parler	null	0:00:06.336					
1305.122601	Parler	Oui	0:00:02.259					
1307.381847	Parler	null	0:05:10.617					
1308.082268	Occlusion frontale	Oui	0:00:01.431					
1309.513007	Occlusion frontale	null	0:00:02.612					
1312.12511	Occlusion frontale	Oui	0:00:01.660					
1313.785402	Occlusion frontale	null	0:00:08.974					
1322.759446	Occlusion frontale	Oui	0:00:07.784					
1325.146198	Occlusion droite	Oui	0:00:00.235					
1325.381065	Occlusion droite	null	0:05:57.913					
1330.543659	Occlusion frontale	null	0:04:47.202					
1406.302933	Valence	null	0:03:22.020					
1406.302933	Degré de certitude	null	0:03:22.020					
1406.302933	Intensité	null	0:03:22.020					
1406.302933	Emotion	null	0:03:22.020					
1407.282797	Commentaire	Fin induction 3						
1608.323197	Commentaire	Debut induction 4						
1608.323405	Degré de certitude	+1 Plutôt sûr	0:00:40.040					
1608.323405	Intensité	-2 Très peu	0:00:40.040					
1608.323405	Emotion	Joie	0:00:40.040					
1608.323405	Valence	Positive	0:00:40.040					
1616.282916	Soleil	Oui	0:00:04.665					
1617.745957	Occlusion frontale	Oui	0:00:06.058					
1617.998551	Parler	Oui	0:00:04.460					
1620.947916	Soleil	null	0:00:52.989					
1622.45873	Parler	null	0:00:27.300					
1623.80409	Occlusion frontale	null	0:00:58.631					
1648.36376	Degré de certitude	+1 Plutôt sûr	0:00:34.071					
1648.36376	Intensité	-1 Peu	0:00:34.071					
1648.36376	Emotion	Joie	0:00:34.071					
1648.36376	Valence	Positive	0:00:34.071					
1649.758443	Parler	Oui	0:00:01.835					
1651.593517	Parler	null	0:00:01.320					
1652.913208	Parler	Oui	0:00:03.214					
1656.127575	Parler	null	0:00:03.144					
1659.271564	Parler	Oui	0:00:01.014					
1660.285455	Parler	null	0:00:08.751					
1669.036233	Parler	Oui	0:00:12.786					
1673.937158	Soleil	Oui	0:00:04.475					
1678.412158	Soleil	null	0:00:04.424					
1681.821744	Parler	null	0:00:12.719					
1682.435123	Degré de certitude	+1 Plutôt sûr	0:00:25.702					
1682.435123	Intensité	0 Neutre	0:00:25.702					
1682.435123	Emotion	Neutre	0:00:25.702					
1682.435123	Valence	Neutre	0:00:25.702					
1682.435123	Occlusion frontale	Oui	0:00:05.155					
1682.8363	Soleil	Oui	0:00:03.855					
1683.294428	Occlusion droite	Oui	0:00:00.637					
1683.931926	Occlusion droite	null	0:00:04.629					
1686.691455	Soleil	null	0:09:06.367					
1687.590385	Occlusion frontale	null	0:00:00.971					
1688.561332	Occlusion droite	Oui	0:00:00.906					
1688.561332	Occlusion frontale	Oui	0:00:00.906					
1689.467251	Occlusion droite	null	0:08:30.865					
1689.467251	Occlusion frontale	null	0:02:04.331					
1694.540821	Parler	Oui	0:00:13.391					
1707.931357	Parler	null	0:00:08.294					
1708.136712	Degré de certitude	+1 Plutôt sûr	0:00:16.840					
1708.136712	Intensité	-1 Peu	0:00:16.840					
1708.136712	Emotion	Neutre	0:00:16.840					
1708.136712	Valence	Positive	0:00:16.840					
1716.225297	Parler	Oui	0:00:14.191					
1724.976712	Degré de certitude	null	0:00:00.036					
1724.976712	Intensité	null	0:00:00.036					
1724.976712	Valence	null	0:00:00.036					
1724.976712	Emotion	null	0:00:00.036					
1725.012357	Degré de certitude	+1 Plutôt sûr	0:00:19.562					
1725.012357	Intensité	0 Neutre	0:00:19.562					
1725.012357	Valence	Neutre	0:00:19.562					
1725.012357	Emotion	Neutre	0:00:19.562					
1730.415864	Parler	null	0:00:02.404					
1732.820084	Parler	Oui	0:00:04.584					
1737.404136	Parler	null	0:00:16.955					
1744.574655	Degré de certitude	+1 Plutôt sûr	0:00:04.481					
1744.574655	Intensité	-1 Peu	0:00:04.481					
1744.574655	Emotion	Joie	0:00:04.481					
1744.574655	Valence	Positive	0:00:04.481					
1749.055317	Intensité	+1 Beaucoup	0:00:22.874					
1749.055317	Degré de certitude	+1 Plutôt sûr	0:00:22.874					
1749.055317	Emotion	Joie	0:00:22.874					
1749.055317	Valence	Positive	0:00:22.874					
1754.359317	Parler	Oui	0:00:12.268					
1766.627712	Parler	null	0:00:01.870					
1768.497463	Parler	Oui	0:00:07.041					
1771.929006	Degré de certitude	+1 Plutôt sûr	0:00:39.026					
1771.929006	Intensité	-1 Peu	0:00:39.026					
1771.929006	Emotion	Joie	0:00:39.026					
1771.929006	Valence	Positive	0:00:39.026					
1775.538224	Parler	null	0:00:04.020					
1779.558381	Parler	Oui	0:00:00.330					
1779.887909	Parler	Oui	0:00:01.363					
1781.25119	Parler	null	0:00:23.238					
1804.489378	Parler	Oui	0:00:04.260					
1808.749549	Parler	null	0:00:15.820					
1810.955187	Intensité	+1 Beaucoup	0:00:03.851					
1810.955187	Degré de certitude	+1 Plutôt sûr	0:00:03.851					
1810.955187	Emotion	Joie	0:00:03.851					
1810.955187	Valence	Positive	0:00:03.851					
1813.798307	Occlusion frontale	Oui	0:00:04.740					
1814.805988	Degré de certitude	+1 Plutôt sûr	0:00:17.648					
1814.805988	Intensité	-1 Peu	0:00:17.648					
1814.805988	Emotion	Joie	0:00:17.648					
1814.805988	Valence	Positive	0:00:17.648					
1818.538466	Occlusion frontale	null	0:06:14.665					
1824.569682	Parler	Oui	0:00:13.948					
1832.454103	Degré de certitude	+1 Plutôt sûr	0:00:16.845					
1832.454103	Intensité	0 Neutre	0:00:16.845					
1832.454103	Emotion	Neutre	0:00:16.845					
1832.454103	Valence	Neutre	0:00:16.845					
1838.517493	Parler	null	0:06:25.932					
1849.299115	Emotion	null	0:05:41.555					
1849.299115	Intensité	null	0:05:41.555					
1849.299115	Degré de certitude	null	0:05:41.555					
1849.299115	Valence	null	0:05:41.555					
1849.852247	Commentaire	Fin induction 4						
2189.88793	Commentaire	Debut induction 5						
2190.854152	Degré de certitude	+1 Plutôt sûr	0:01:48.324					
2190.854152	Intensité	-1 Peu	0:01:48.324					
2190.854152	Emotion	Colère	0:01:48.324					
2190.854152	Valence	Négative	0:01:48.324					
2193.203921	Occlusion frontale	Oui	0:00:24.878					
2200.332372	Occlusion droite	Oui	0:00:02.807					
2203.139678	Occlusion droite	null	0:01:09.028					
2218.082186	Occlusion frontale	null	0:00:02.290					
2220.372093	Occlusion frontale	Oui	0:00:17.212					
2224.449543	Parler	Oui	0:00:07.085					
2231.534826	Parler	null	0:00:43.130					
2233.05836	Soleil	Oui	0:00:05.997					
2237.583964	Occlusion frontale	null	0:00:34.583					
2239.055147	Soleil	null	0:01:01.235					
2272.167215	Occlusion droite	Oui	0:00:00.980					
2272.167215	Occlusion frontale	Oui	0:00:00.980					
2273.147662	Occlusion droite	null	0:01:13.844					
2273.147662	Occlusion frontale	null	0:00:26.031					
2274.664339	Parler	Oui	0:00:01.891					
2276.55575	Parler	null	0:00:32.781					
2299.178351	Degré de certitude	0 Moyennement sûr	0:00:04.460					
2299.178351	Intensité	0 Neutre	0:00:04.460					
2299.178351	Emotion	Neutre	0:00:04.460					
2299.178351	Valence	Neutre	0:00:04.460					
2299.178351	Occlusion frontale	Oui	0:00:04.460					
2300.290241	Soleil	Oui	0:00:04.465					
2303.63872	Intensité	-1 Peu	0:00:37.553					
2303.63872	Degré de certitude	-1 Peu sûr	0:00:37.553					
2303.63872	Emotion	Colère	0:00:37.553					
2303.63872	Valence	Négative	0:00:37.553					
2303.63872	Occlusion frontale	null	0:00:13.213					
2304.755419	Soleil	null	0:00:12.405					
2309.336467	Parler	Oui	0:00:04.475					
2313.811646	Parler	null	0:00:01.813					
2315.624822	Parler	Oui	0:00:05.830					
2316.851735	Occlusion frontale	Oui	0:00:03.868					
2317.160233	Soleil	Oui	0:00:17.031					
2320.719474	Occlusion frontale	null	0:00:20.472					
2321.455137	Parler	null	0:00:14.724					
2334.190914	Soleil	null	0:00:05.828					
2336.179391	Parler	Oui	0:00:01.820					
2337.999464	Parler	null	0:00:36.466					
2340.0189	Soleil	Oui	0:00:05.675					
2341.191461	Intensité	0 Neutre	0:00:55.893					
2341.191461	Degré de certitude	-1 Peu sûr	0:00:55.893					
2341.191461	Valence	Neutre	0:00:55.893					
2341.191461	Emotion	Neutre	0:00:55.893					
2341.191461	Occlusion frontale	Oui	0:00:17.782					
2345.694127	Soleil	null	0:00:31.875					
2346.992137	Occlusion droite	Oui	0:00:00.503					
2347.495425	Occlusion droite	null	0:00:02.741					
2350.236323	Occlusion droite	Oui	0:00:01.007					
2351.242899	Occlusion droite	null	0:00:01.903					
2353.146287	Occlusion droite	Oui	0:00:00.772					
2353.917995	Occlusion droite	null	0:00:44.012					
2358.973041	Occlusion frontale	null	0:00:38.112					
2374.465035	Parler	Oui	0:00:05.475					
2377.568662	Soleil	Oui	0:00:06.700					
2379.940254	Parler	null	0:00:06.104					
2384.26893	Soleil	null	0:00:04.871					
2386.043812	Parler	Oui	0:00:03.640					
2389.140348	Soleil	Oui	0:00:07.300					
2389.683958	Parler	null	0:00:04.268					
2393.952045	Parler	Oui	0:00:05.885					
2396.44064	Soleil	null	0:02:02.972					
2397.084594	Degré de certitude	0 Moyennement sûr	0:00:05.615					
2397.084594	Intensité	0 Neutre	0:00:05.615					
2397.084594	Emotion	Neutre	0:00:05.615					
2397.084594	Valence	Neutre	0:00:05.615					
2397.084594	Occlusion frontale	Oui	0:00:04.364					
2397.930005	Occlusion droite	Oui	0:00:00.403					
2398.332636	Occlusion droite	null	0:01:49.313					
2399.837281	Parler	null	0:01:46.708					
2401.448991	Occlusion frontale	null	0:01:52.360					
2402.700036	Emotion	null	0:01:41.067					
2402.700036	Valence	null	0:01:41.067					
2402.700036	Intensité	null	0:01:41.067					
2402.700036	Degré de certitude	null	0:01:41.067					
2415.684012	Commentaire	Fin induction 5						
2503.766948	Commentaire	Debut induction 6						
2503.766949	Degré de certitude	+1 Plutôt sûr	0:00:04.090					
2503.766949	Intensité	0 Neutre	0:00:04.090					
2503.766949	Emotion	Neutre	0:00:04.090					
2503.766949	Valence	Neutre	0:00:04.090					
2506.54557	Parler	Oui	0:00:05.470					
2507.645726	Occlusion droite	Oui	0:00:02.200					
2507.856965	Intensité	+1 Beaucoup	0:00:06.212					
2507.856965	Degré de certitude	+1 Plutôt sûr	0:00:06.212					
2507.856965	Emotion	Joie	0:00:06.212					
2507.856965	Valence	Positive	0:00:06.212					
2509.845693	Occlusion droite	null	0:00:03.963					
2512.015789	Parler	null	0:00:05.340					
2513.809149	Occlusion frontale	Oui	0:00:00.201					
2513.809149	Occlusion droite	Oui	0:00:00.201					
2514.010464	Occlusion frontale	null	0:00:05.402					
2514.010464	Occlusion droite	null	0:00:05.402					
2514.068757	Degré de certitude	+1 Plutôt sûr	0:00:05.344					
2514.068757	Intensité	-1 Peu	0:00:05.344					
2514.068757	Emotion	Joie	0:00:05.344					
2514.068757	Valence	Positive	0:00:05.344					
2517.35535	Parler	Oui	0:00:02.035					
2519.389945	Parler	null	0:00:00.023					
2519.412658	Degré de certitude	null	0:00:00.000					
2519.412658	Intensité	null	0:00:00.000					
2519.412658	Valence	null	0:00:00.000					
2519.412658	Emotion	null	0:00:00.000					
2519.412658	Commentaire	Fin induction 6						
