{
    "data": [
        {
            "time": 0.0,
            "comment": "Debut recording"
        },
        {
            "time": 198.6052271,
            "comment": "Debut emotion 1"
        },
        {
            "time": 198.694893,
            "duration": 7.242,
            "intensity": 0.8,
            "certainty": 0.8,
            "emotion": "surprise"
        },
        {
            "time": 205.9365373,
            "duration": 26.162,
            "intensity": 0.8,
            "certainty": 0.4,
            "emotion": "fear"
        },
        {
            "time": 232.098406,
            "duration": 1.009,
            "intensity": 0.8,
            "certainty": 0.6,
            "emotion": "surprise"
        },
        {
            "time": 233.1074637,
            "duration": 38.408,
            "intensity": 0.6,
            "certainty": 0.4,
            "emotion": "neutrality"
        },
        {
            "time": 271.5150478,
            "duration": 1.096,
            "intensity": 0.8,
            "certainty": 0.6,
            "emotion": "surprise"
        },
        {
            "time": 272.6563076,
            "comment": "Fin emotion 1"
        },
        {
            "time": 365.1120004,
            "comment": "Debut neutre"
        },
        {
            "time": 367.342268,
            "duration": 22.111,
            "certainty": 1,
            "intensity": 0.6,
            "emotion": "neutrality"
        },
        {
            "time": 389.4535946,
            "duration": 249.101,
            "intensity": 0,
            "certainty": 0,
            "comment": "Fin neutre"
        },
        {
            "time": 638.3548617,
            "comment": "Debut emotion 2"
        },
        {
            "time": 638.5548697,
            "duration": 5.68,
            "certainty": 0.8,
            "intensity": 0.4,
            "emotion": "happiness"
        },
        {
            "time": 644.2350969,
            "comment": "Fin emotion 2"
        },
        {
            "time": 918.4494267,
            "comment": "Debut emotion 3"
        },
        {
            "time": 918.4539686,
            "duration": 3.04,
            "speak": "yes"
        },
        {
            "time": 918.4650591,
            "duration": 7.041,
            "certainty": 0.8,
            "intensity": 0.4,
            "emotion": "anger"
        },
        {
            "time": 922.9168411,
            "duration": 1.35,
            "speak": "yes"
        },
        {
            "time": 925.5395685,
            "comment": "Fin emotion 3"
        },
        {
            "time": 1121.570492,
            "comment": "Debut induction 1"
        },
        {
            "time": 1124.35983,
            "duration": 2.374,
            "certainty": 0.8,
            "intensity": 0.4,
            "emotion": "disgust"
        },
        {
            "time": 1124.423866,
            "duration": 0.815,
            "speak": "yes"
        },
        {
            "time": 1126.734246,
            "duration": 6.291,
            "certainty": 0.8,
            "intensity": 0.6,
            "emotion": "neutrality"
        },
        {
            "time": 1133.070408,
            "comment": "Fin induction 1"
        },
        {
            "time": 1265.134265,
            "comment": "Debut induction 2"
        },
        {
            "time": 1265.188387,
            "duration": 0.954,
            "intensity": 0.6,
            "certainty": 0.4,
            "emotion": "neutrality"
        },
        {
            "time": 1266.142117,
            "duration": 11.84,
            "certainty": 0.4,
            "intensity": 0.2,
            "emotion": "surprise"
        },
        {
            "time": 1272.79202,
            "duration": 1.088,
            "speak": "yes"
        },
        {
            "time": 1277.982523,
            "duration": 1.256,
            "intensity": 0.8,
            "certainty": 0.4,
            "emotion": "surprise"
        },
        {
            "time": 1279.238235,
            "duration": 2.076,
            "intensity": 0.6,
            "certainty": 0.4,
            "emotion": "neutrality"
        },
        {
            "time": 1281.484021,
            "comment": "Fin induction 2"
        },
        {
            "time": 1418.964875,
            "comment": "Debut induction 3"
        },
        {
            "time": 1418.996832,
            "duration": 46.551,
            "certainty": 0.6,
            "intensity": 0.6,
            "emotion": "neutrality"
        },
        {
            "time": 1421.799653,
            "duration": 5.655,
            "occlusion": "frontal"
        },
        {
            "time": 1428.365268,
            "duration": 21.046,
            "occlusion": "frontal"
        },
        {
            "time": 1428.936982,
            "duration": 3.245,
            "speak": "yes"
        },
        {
            "time": 1465.548219,
            "duration": 3.61,
            "intensity": 0.4,
            "certainty": 0.4,
            "emotion": "surprise"
        },
        {
            "time": 1469.158462,
            "duration": 48.353,
            "certainty": 0.6,
            "intensity": 0.6,
            "emotion": "neutrality"
        },
        {
            "time": 1481.772791,
            "duration": 1.866,
            "occlusion": "frontal"
        },
        {
            "time": 1486.157178,
            "duration": 8.963,
            "occlusion": "frontal"
        },
        {
            "time": 1517.511718,
            "duration": 10.745,
            "certainty": 0.6,
            "intensity": 0.2,
            "emotion": "happiness"
        },
        {
            "time": 1517.533931,
            "duration": 2.03,
            "speak": "yes"
        },
        {
            "time": 1528.256718,
            "duration": 203.639,
            "certainty": 0.6,
            "intensity": 0.6,
            "emotion": "neutrality"
        },
        {
            "time": 1543.75479,
            "duration": 28.785,
            "speak": "yes"
        },
        {
            "time": 1559.876455,
            "duration": 0.886,
            "occlusion": "right"
        },
        {
            "time": 1583.822556,
            "duration": 2.64,
            "speak": "yes"
        },
        {
            "time": 1631.771415,
            "duration": 3.355,
            "occlusion": "frontal"
        },
        {
            "time": 1635.662922,
            "duration": 68.879,
            "occlusion": "frontal"
        },
        {
            "time": 1641.431913,
            "duration": 1.633,
            "occlusion": "right"
        },
        {
            "time": 1707.889965,
            "duration": 1.825,
            "speak": "yes"
        },
        {
            "time": 1724.565907,
            "duration": 4.129,
            "occlusion": "frontal"
        },
        {
            "time": 1725.357893,
            "duration": 0.503,
            "occlusion": "right"
        },
        {
            "time": 1731.895558,
            "duration": 2.43,
            "certainty": 0.6,
            "intensity": 0.4,
            "emotion": "surprise"
        },
        {
            "time": 1734.325607,
            "duration": 20.927,
            "certainty": 0.6,
            "intensity": 0.6,
            "emotion": "neutrality"
        },
        {
            "time": 1740.025254,
            "duration": 2.3,
            "occlusion": "frontal"
        },
        {
            "time": 1747.38823,
            "duration": 2.767,
            "occlusion": "frontal"
        },
        {
            "time": 1752.916672,
            "duration": 2.23,
            "speak": "yes"
        },
        {
            "time": 1755.432362,
            "comment": "Fin induction 3"
        },
        {
            "time": 1963.495327,
            "comment": "Debut emotion 4"
        },
        {
            "time": 1963.635525,
            "duration": 49.174,
            "intensity": 0.8,
            "certainty": 0.8,
            "emotion": "happiness"
        },
        {
            "time": 1963.810172,
            "duration": 3.26,
            "speak": "yes"
        },
        {
            "time": 1970.098166,
            "duration": 1.005,
            "speak": "yes"
        },
        {
            "time": 1972.563605,
            "duration": 10.077,
            "speak": "yes"
        },
        {
            "time": 1978.540368,
            "duration": 0.536,
            "occlusion": "right"
        },
        {
            "time": 1983.982482,
            "duration": 5.497,
            "speak": "yes"
        },
        {
            "time": 1991.24904,
            "duration": 2.29,
            "speak": "yes"
        },
        {
            "time": 1998.270569,
            "duration": 4.703,
            "occlusion": "frontal"
        },
        {
            "time": 1999.143935,
            "duration": 0.436,
            "occlusion": "right"
        },
        {
            "time": 1999.164398,
            "duration": 1.825,
            "speak": "yes"
        },
        {
            "time": 2005.263117,
            "duration": 0.805,
            "speak": "yes"
        },
        {
            "time": 2012.809577,
            "duration": 7.547,
            "certainty": 0.8,
            "intensity": 0.6,
            "emotion": "neutrality"
        },
        {
            "time": 2020.35652,
            "duration": 5.028,
            "certainty": 0.8,
            "intensity": 0.4,
            "emotion": "happiness"
        },
        {
            "time": 2025.384747,
            "duration": 3.919,
            "intensity": 0.8,
            "certainty": 0.8,
            "emotion": "happiness"
        },
        {
            "time": 2029.303415,
            "duration": 12.82,
            "certainty": 0.8,
            "intensity": 0.4,
            "emotion": "happiness"
        },
        {
            "time": 2033.161509,
            "duration": 3.582,
            "speak": "yes"
        },
        {
            "time": 2037.703107,
            "duration": 4.42,
            "speak": "yes"
        },
        {
            "time": 2042.298528,
            "comment": "Fin emotion 4"
        },
        {
            "time": 2058.254475,
            "comment": "Debut induction 4"
        },
        {
            "time": 2059.354712,
            "duration": 33.768,
            "certainty": 0.8,
            "intensity": 0.2,
            "emotion": "happiness"
        },
        {
            "time": 2080.535251,
            "duration": 2.83,
            "speak": "yes"
        },
        {
            "time": 2093.122567,
            "duration": 2.85,
            "certainty": 0.8,
            "intensity": 0.6,
            "emotion": "neutrality",
            "occlusion": "right"
        },
        {
            "time": 2094.985321,
            "duration": 13.038,
            "speak": "yes"
        },
        {
            "time": 2095.97243,
            "duration": 2.634,
            "certainty": 0.8,
            "intensity": 0.6,
            "emotion": "neutrality"
        },
        {
            "time": 2098.606706,
            "duration": 31.314,
            "intensity": 0.6,
            "certainty": 0.4,
            "emotion": "neutrality"
        },
        {
            "time": 2105.71959,
            "duration": 1.194,
            "occlusion": "frontal"
        },
        {
            "time": 2107.155029,
            "duration": 22.766,
            "occlusion": "frontal"
        },
        {
            "time": 2123.931237,
            "duration": 5.218,
            "speak": "yes"
        },
        {
            "time": 2129.920836,
            "duration": 7.969,
            "certainty": 0.8,
            "intensity": 0.4,
            "emotion": "happiness"
        },
        {
            "time": 2137.889568,
            "duration": 3.457,
            "intensity": 0.6,
            "certainty": 0.4,
            "emotion": "neutrality"
        },
        {
            "time": 2140.955745,
            "duration": 23.087,
            "speak": "yes"
        },
        {
            "time": 2141.346901,
            "duration": 10.337,
            "intensity": 0.4,
            "certainty": 0.4,
            "emotion": "happiness"
        },
        {
            "time": 2151.684281,
            "duration": 7.874,
            "intensity": 0.8,
            "certainty": 0.4,
            "emotion": "happiness"
        },
        {
            "time": 2159.558743,
            "duration": 10.598,
            "intensity": 0.4,
            "certainty": 0.4,
            "emotion": "happiness"
        },
        {
            "time": 2165.371578,
            "duration": 3.154,
            "speak": "yes"
        },
        {
            "time": 2170.1569,
            "duration": 2.737,
            "certainty": 0.4,
            "intensity": 0.2,
            "emotion": "happiness",
            "occlusion": "frontal"
        },
        {
            "time": 2172.893483,
            "duration": 6.676,
            "intensity": 0.6,
            "certainty": 0.4,
            "emotion": "neutrality"
        },
        {
            "time": 2179.569929,
            "duration": 7.732,
            "intensity": 0.4,
            "certainty": 0.4,
            "emotion": "happiness"
        },
        {
            "time": 2188.669691,
            "comment": "Fin induction 4"
        },
        {
            "time": 2355.326676,
            "comment": "Debut emotion 5"
        },
        {
            "time": 2355.557563,
            "duration": 3.247,
            "speak": "yes"
        },
        {
            "time": 2355.557563,
            "duration": 1.326,
            "certainty": 0.6,
            "intensity": 0.6,
            "emotion": "neutrality",
            "occlusion": "frontal"
        },
        {
            "time": 2356.883142,
            "duration": 3.65,
            "certainty": 0.6,
            "intensity": 0.4,
            "emotion": "surprise"
        },
        {
            "time": 2360.533351,
            "duration": 19.438,
            "certainty": 0.6,
            "intensity": 0.6,
            "emotion": "neutrality"
        },
        {
            "time": 2361.12167,
            "duration": 1.827,
            "speak": "yes"
        },
        {
            "time": 2376.314463,
            "comment": "Fin emotion 5"
        },
        {
            "time": 2379.971344,
            "duration": 4.865,
            "certainty": 0.6,
            "intensity": 0.2,
            "emotion": "happiness"
        },
        {
            "time": 2384.836622,
            "duration": 92.081,
            "certainty": 0.6,
            "intensity": 0.6,
            "emotion": "neutrality"
        },
        {
            "time": 2422.699052,
            "comment": " Debut induction 5"
        },
        {
            "time": 2432.496081,
            "duration": 4.465,
            "occlusion": "frontal"
        },
        {
            "time": 2435.61146,
            "duration": 6.228,
            "speak": "yes"
        },
        {
            "time": 2447.906719,
            "duration": 2.303,
            "occlusion": "frontal"
        },
        {
            "time": 2454.312071,
            "duration": 3.076,
            "occlusion": "frontal"
        },
        {
            "time": 2457.747305,
            "duration": 4.507,
            "occlusion": "right"
        },
        {
            "time": 2460.940605,
            "duration": 1.425,
            "speak": "yes"
        },
        {
            "time": 2467.639225,
            "duration": 7.859,
            "occlusion": "frontal"
        },
        {
            "time": 2476.636371,
            "duration": 4.718,
            "speak": "yes"
        },
        {
            "time": 2476.917298,
            "duration": 11.386,
            "certainty": 0.6,
            "intensity": 0.2,
            "emotion": "happiness"
        },
        {
            "time": 2477.287836,
            "duration": 11.016,
            "occlusion": "frontal"
        },
        {
            "time": 2488.30353,
            "duration": 31.692,
            "certainty": 0.6,
            "intensity": 0.6,
            "emotion": "neutrality"
        },
        {
            "time": 2499.07699,
            "duration": 1.868,
            "occlusion": "frontal"
        },
        {
            "time": 2520.457962,
            "comment": "Fin induction 5"
        },
        {
            "time": 2676.93834,
            "comment": "Debut induction 6"
        },
        {
            "time": 2681.049464,
            "duration": 1.407,
            "certainty": 0.6,
            "intensity": 0.6,
            "emotion": "neutrality",
            "occlusion": "frontal"
        },
        {
            "time": 2682.456234,
            "duration": 14.409,
            "certainty": 0.8,
            "intensity": 0.4,
            "emotion": "happiness"
        },
        {
            "time": 2686.618727,
            "duration": 2.645,
            "speak": "yes"
        },
        {
            "time": 2691.933695,
            "duration": 3.86,
            "speak": "yes"
        },
        {
            "time": 2696.86562,
            "duration": 2.814,
            "certainty": 0.4,
            "intensity": 0.2,
            "emotion": "happiness"
        }
    ]
}